
./octez-client --protocol ProtoALphaALphaALphaALphaALphaALphaALphaALphaDdp3zK --mode mockup --no-base-dir-warnings typecheck script tests_python/contracts_alpha/opcodes/hash_consistency_checker.tz --details
Well typed
Gas remaining: 1039996.569 units remaining
{ parameter (pair mutez (pair timestamp int)) ;
  storage bytes ;
  code { CAR
         /* [ pair mutez timestamp int ] */ ;
         PACK
         /* [ bytes ] */ ;
         BLAKE2B
         /* [ bytes ] */ ;
         NIL operation
         /* [ list operation : bytes ] */ ;
         PAIR
         /* [ pair (list operation) bytes ] */ } }
