
./octez-client --protocol ProtoALphaALphaALphaALphaALphaALphaALphaALphaDdp3zK --mode mockup --no-base-dir-warnings typecheck script tests_python/contracts_alpha/opcodes/if.tz --details
Well typed
Gas remaining: 1039995.290 units remaining
{ parameter bool ;
  storage (option bool) ;
  code { CAR
         /* [ bool ] */ ;
         IF { PUSH bool True /* [ bool ] */ } { PUSH bool False /* [ bool ] */ } ;
         SOME
         /* [ option bool ] */ ;
         NIL operation
         /* [ list operation : option bool ] */ ;
         PAIR
         /* [ pair (list operation) (option bool) ] */ } }
