
./octez-client --protocol ProtoALphaALphaALphaALphaALphaALphaALphaALphaDdp3zK --mode mockup --no-base-dir-warnings typecheck script tests_python/contracts_alpha/mini_scenarios/lockup.tz --details
Well typed
Gas remaining: 1039983.115 units remaining
{ parameter unit ;
  storage (pair timestamp (pair mutez address)) ;
  code { CDR
         /* [ pair timestamp mutez address ] */ ;
         DUP
         /* [ pair timestamp mutez address : pair timestamp mutez address ] */ ;
         CAR
         /* [ timestamp : pair timestamp mutez address ] */ ;
         NOW
         /* [ timestamp : timestamp : pair timestamp mutez address ] */ ;
         CMPLT ;
         IF { FAIL } { /* [ pair timestamp mutez address ] */ } ;
         DUP
         /* [ pair timestamp mutez address : pair timestamp mutez address ] */ ;
         CDR
         /* [ pair mutez address : pair timestamp mutez address ] */ ;
         DUP
         /* [ pair mutez address : pair mutez address : pair timestamp mutez address ] */ ;
         CAR
         /* [ mutez : pair mutez address : pair timestamp mutez address ] */ ;
         DIP { CDR /* [ address : pair timestamp mutez address ] */ }
         /* [ mutez : address : pair timestamp mutez address ] */ ;
         DIP { CONTRACT unit
               /* [ option (contract unit) : pair timestamp mutez address ] */ ;
               ASSERT_SOME }
         /* [ mutez : contract unit : pair timestamp mutez address ] */ ;
         UNIT
         /* [ unit : mutez : contract unit : pair timestamp mutez address ] */ ;
         TRANSFER_TOKENS
         /* [ operation : pair timestamp mutez address ] */ ;
         NIL operation
         /* [ list operation : operation : pair timestamp mutez address ] */ ;
         SWAP
         /* [ operation : list operation : pair timestamp mutez address ] */ ;
         CONS
         /* [ list operation : pair timestamp mutez address ] */ ;
         PAIR
         /* [ pair (list operation) timestamp mutez address ] */ } }
