
./octez-client --protocol ProtoALphaALphaALphaALphaALphaALphaALphaALphaDdp3zK --mode mockup --no-base-dir-warnings typecheck script tests_python/contracts_alpha/mini_scenarios/originate_contract.tz --details
Well typed
Gas remaining: 1039991.040 units remaining
{ parameter unit ;
  storage unit ;
  code { DROP
         /* [ unit ] */ ;
         UNIT
         /* [ list operation : unit ] */ ;
         AMOUNT
         /* [ mutez : unit ] */ ;
         NONE key_hash
         /* [ pair (list operation) unit ] */ ;
         CREATE_CONTRACT
           { parameter unit ; storage unit ; code { CDR ; NIL operation ; PAIR } }
         /* [ operation : address ] */ ;
         DIP { DROP
               /* [] */ ;
               PUSH unit Unit
               /* [ unit ] */ ;
               NIL operation
               /* [ list operation : unit ] */ }
         /* [ operation : list operation : unit ] */ ;
         CONS
         /* [ list operation : unit ] */ ;
         PAIR
         /* [ pair (list operation) unit ] */ } }
