
./octez-client --protocol ProtoALphaALphaALphaALphaALphaALphaALphaALphaDdp3zK --mode mockup --no-base-dir-warnings typecheck script tests_python/contracts_alpha/attic/list_of_transactions.tz --details
Well typed
Gas remaining: 1039985.482 units remaining
{ parameter unit ;
  storage (list address) ;
  code { CDR
         /* [ list address ] */ ;
         DUP
         /* [ list address : list address ] */ ;
         DIP { NIL operation /* [ list operation : list address ] */ }
         /* [ list address : list operation : list address ] */ ;
         PUSH bool True
         /* [ bool : list address : list operation : list address ] */ ;
         LOOP { IF_CONS
                  { CONTRACT
                      unit
                    /* [ option (contract unit) : list address : list operation : list address ] */ ;
                    ASSERT_SOME ;
                    PUSH mutez
                         1000000
                    /* [ mutez : contract unit : list address : list operation : list address ] */ ;
                    UNIT
                    /* [ unit : mutez : contract unit : list address : list operation
                       : list address ] */ ;
                    TRANSFER_TOKENS
                    /* [ operation : list address : list operation : list address ] */ ;
                    SWAP
                    /* [ list address : operation : list operation : list address ] */ ;
                    DIP { CONS /* [ list operation : list address ] */ }
                    /* [ list address : list operation : list address ] */ ;
                    PUSH bool True
                    /* [ bool : list address : list operation : list address ] */ }
                  { NIL address
                    /* [ list address : list operation : list address ] */ ;
                    PUSH bool False
                    /* [ bool : list address : list operation : list address ] */ } }
         /* [ list address : list operation : list address ] */ ;
         DROP
         /* [ list operation : list address ] */ ;
         PAIR
         /* [ pair (list operation) (list address) ] */ } }
