
./octez-client --protocol ProtoALphaALphaALphaALphaALphaALphaALphaALphaDdp3zK --mode mockup --no-base-dir-warnings typecheck script tests_python/contracts_alpha/opcodes/if_some.tz --details
Well typed
Gas remaining: 1039996.019 units remaining
{ parameter (option string) ;
  storage string ;
  code { CAR
         /* [ option string ] */ ;
         IF_SOME { /* [ string ] */ } { PUSH string "" /* [ string ] */ } ;
         NIL operation
         /* [ list operation : string ] */ ;
         PAIR
         /* [ pair (list operation) string ] */ } }
