
./octez-client --protocol ProtoALphaALphaALphaALphaALphaALphaALphaALphaDdp3zK --mode mockup --no-base-dir-warnings typecheck script tests_python/contracts_alpha/opcodes/car.tz --details
Well typed
Gas remaining: 1039997.277 units remaining
{ parameter (pair (nat :l) (nat :r)) ;
  storage nat ;
  code { CAR
         /* [ pair nat nat ] */ ;
         CAR
         /* [ nat ] */ ;
         NIL operation
         /* [ list operation : nat ] */ ;
         PAIR
         /* [ pair (list operation) nat ] */ } }
