
./octez-client --protocol ProtoALphaALphaALphaALphaALphaALphaALphaALphaDdp3zK --mode mockup --no-base-dir-warnings typecheck script tests_python/contracts_alpha/opcodes/bls12_381_fr_to_int.tz --details
Well typed
Gas remaining: 1039997.443 units remaining
{ parameter bls12_381_fr ;
  storage int ;
  code { CAR
         /* [ bls12_381_fr ] */ ;
         INT
         /* [ int ] */ ;
         NIL operation
         /* [ list operation : int ] */ ;
         PAIR
         /* [ pair (list operation) int ] */ } }
