
./octez-client --protocol ProtoALphaALphaALphaALphaALphaALphaALphaALphaDdp3zK --mode mockup --no-base-dir-warnings typecheck script tests_python/contracts_alpha/macros/guestbook.tz --details
Well typed
Gas remaining: 1039988.143 units remaining
{ parameter string ;
  storage (map address (option string)) ;
  code { UNPAIR @message @guestbook
         /* [ string : map address (option string) ] */ ;
         SWAP
         /* [ map address (option string) : string ] */ ;
         DUP
         /* [ map address (option string) : map address (option string) : string ] */ ;
         SENDER
         /* [ address : map address (option string) : map address (option string)
            : string ] */ ;
         GET @previous_message
         /* [ option (option string) : map address (option string) : string ] */ ;
         ASSERT_SOME ;
         ASSERT_NONE ;
         SWAP
         /* [ string : map address (option string) ] */ ;
         SOME
         /* [ option string : map address (option string) ] */ ;
         SOME
         /* [ option (option string) : map address (option string) ] */ ;
         SENDER
         /* [ address : option (option string) : map address (option string) ] */ ;
         UPDATE
         /* [ map address (option string) ] */ ;
         NIL operation
         /* [ list operation : map address (option string) ] */ ;
         PAIR
         /* [ pair (list operation) (map address (option string)) ] */ } }
