
./octez-client --protocol ProtoALphaALphaALphaALphaALphaALphaALphaALphaDdp3zK --mode mockup --no-base-dir-warnings typecheck script tests_python/contracts_alpha/opcodes/bls12_381_fr_push_bytes_not_padded.tz --details
Well typed
Gas remaining: 1039996.436 units remaining
{ parameter unit ;
  storage (option bls12_381_fr) ;
  code { DROP
         /* [] */ ;
         PUSH bls12_381_fr 0x00
         /* [ bls12_381_fr ] */ ;
         SOME
         /* [ option bls12_381_fr ] */ ;
         NIL operation
         /* [ list operation : option bls12_381_fr ] */ ;
         PAIR
         /* [ pair (list operation) (option bls12_381_fr) ] */ } }
