
./octez-client --protocol ProtoALphaALphaALphaALphaALphaALphaALphaALphaDdp3zK --mode mockup --no-base-dir-warnings typecheck script tests_python/contracts_alpha/opcodes/mul_bls12_381_g1.tz --details
Well typed
Gas remaining: 1039996.129 units remaining
{ parameter (pair bls12_381_g1 bls12_381_fr) ;
  storage (option bls12_381_g1) ;
  code { CAR
         /* [ pair bls12_381_g1 bls12_381_fr ] */ ;
         UNPAIR
         /* [ bls12_381_g1 : bls12_381_fr ] */ ;
         MUL
         /* [ bls12_381_g1 ] */ ;
         SOME
         /* [ option bls12_381_g1 ] */ ;
         NIL operation
         /* [ list operation : option bls12_381_g1 ] */ ;
         PAIR
         /* [ pair (list operation) (option bls12_381_g1) ] */ } }
