
./octez-client --protocol ProtoALphaALphaALphaALphaALphaALphaALphaALphaDdp3zK --mode mockup --no-base-dir-warnings typecheck script tests_python/contracts_alpha/mini_scenarios/hardlimit.tz --details
Well typed
Gas remaining: 1039992.503 units remaining
{ parameter unit ;
  storage int ;
  code { CDR
         /* [ int ] */ ;
         DUP
         /* [ int : int ] */ ;
         PUSH int 0
         /* [ int : int : int ] */ ;
         CMPLT ;
         IF { PUSH int -1 /* [ int : int ] */ ; ADD /* [ int ] */ } { FAIL } ;
         NIL operation
         /* [ list operation : int ] */ ;
         PAIR
         /* [ pair (list operation) int ] */ } }
