
./octez-client --protocol ProtoALphaALphaALphaALphaALphaALphaALphaALphaDdp3zK --mode mockup --no-base-dir-warnings typecheck script tests_python/contracts_alpha/opcodes/packunpack.tz --details
Well typed
Gas remaining: 1039987.310 units remaining
{ parameter (pair (pair (pair string (list int)) (set nat)) bytes) ;
  storage unit ;
  code { CAR
         /* [ pair (pair (pair string (list int)) (set nat)) bytes ] */ ;
         UNPAIR
         /* [ pair (pair string (list int)) (set nat) : bytes ] */ ;
         DIP { DUP /* [ bytes : bytes ] */ }
         /* [ pair (pair string (list int)) (set nat) : bytes : bytes ] */ ;
         PACK
         /* [ bytes : bytes : bytes ] */ ;
         ASSERT_CMPEQ ;
         UNPACK
           (pair (pair string (list int)) (set nat))
         /* [ option (pair (pair string (list int)) (set nat)) ] */ ;
         ASSERT_SOME ;
         DROP
         /* [] */ ;
         UNIT
         /* [ unit ] */ ;
         NIL operation
         /* [ list operation : unit ] */ ;
         PAIR
         /* [ pair (list operation) unit ] */ } }
