
./octez-client --protocol ProtoALphaALphaALphaALphaALphaALphaALphaALphaDdp3zK --mode mockup --no-base-dir-warnings typecheck script tests_python/contracts_alpha/opcodes/store_bls12_381_g2.tz --details
Well typed
Gas remaining: 1039997.300 units remaining
{ parameter bls12_381_g2 ;
  storage (option bls12_381_g2) ;
  code { CAR
         /* [ bls12_381_g2 ] */ ;
         SOME
         /* [ option bls12_381_g2 ] */ ;
         NIL operation
         /* [ list operation : option bls12_381_g2 ] */ ;
         PAIR
         /* [ pair (list operation) (option bls12_381_g2) ] */ } }
