
./octez-client --protocol ProtoALphaALphaALphaALphaALphaALphaALphaALphaDdp3zK --mode mockup --no-base-dir-warnings typecheck script tests_python/contracts_alpha/mini_scenarios/self_address_sender.tz --details
Well typed
Gas remaining: 1039993.319 units remaining
{ parameter (contract (lambda unit address)) ;
  storage unit ;
  code { CAR
         /* [ contract (lambda unit address) ] */ ;
         BALANCE
         /* [ mutez : contract (lambda unit address) ] */ ;
         LAMBDA
           unit
           address
           { DROP /* [] */ ; SELF_ADDRESS /* [ address ] */ }
         /* [ lambda unit address : mutez : contract (lambda unit address) ] */ ;
         TRANSFER_TOKENS
         /* [ operation ] */ ;
         DIP { UNIT /* [ unit ] */ ; NIL operation /* [ list operation : unit ] */ }
         /* [ operation : list operation : unit ] */ ;
         CONS
         /* [ list operation : unit ] */ ;
         PAIR
         /* [ pair (list operation) unit ] */ } }
