
./octez-client --protocol ProtoALphaALphaALphaALphaALphaALphaALphaALphaDdp3zK --mode mockup --no-base-dir-warnings typecheck script tests_python/contracts_alpha/macros/compare_bytes.tz --details
Well typed
Gas remaining: 1039971.322 units remaining
{ parameter (pair bytes bytes) ;
  storage (list bool) ;
  code { CAR
         /* [ pair bytes bytes ] */ ;
         DUP
         /* [ pair bytes bytes : pair bytes bytes ] */ ;
         DUP
         /* [ pair bytes bytes : pair bytes bytes : pair bytes bytes ] */ ;
         DUP
         /* [ pair bytes bytes : pair bytes bytes : pair bytes bytes : pair bytes bytes ] */ ;
         DUP
         /* [ pair bytes bytes : pair bytes bytes : pair bytes bytes : pair bytes bytes
            : pair bytes bytes ] */ ;
         DIIIIIP
           { NIL bool /* [ list bool ] */ }
         /* [ pair bytes bytes : pair bytes bytes : pair bytes bytes : pair bytes bytes
            : pair bytes bytes : list bool ] */ ;
         DIIIIP
           { DUP
             /* [ pair bytes bytes : pair bytes bytes : list bool ] */ ;
             CAR
             /* [ bytes : pair bytes bytes : list bool ] */ ;
             DIP { CDR /* [ bytes : list bool ] */ }
             /* [ bytes : bytes : list bool ] */ ;
             COMPARE
             /* [ int : list bool ] */ ;
             LE
             /* [ bool : list bool ] */ ;
             CONS
             /* [ list bool ] */ }
         /* [ pair bytes bytes : pair bytes bytes : pair bytes bytes : pair bytes bytes
            : list bool ] */ ;
         DIIIP
           { DUP
             /* [ pair bytes bytes : pair bytes bytes : list bool ] */ ;
             CAR
             /* [ bytes : pair bytes bytes : list bool ] */ ;
             DIP { CDR /* [ bytes : list bool ] */ }
             /* [ bytes : bytes : list bool ] */ ;
             COMPARE
             /* [ int : list bool ] */ ;
             GE
             /* [ bool : list bool ] */ ;
             CONS
             /* [ list bool ] */ }
         /* [ pair bytes bytes : pair bytes bytes : pair bytes bytes : list bool ] */ ;
         DIIP { DUP
                /* [ pair bytes bytes : pair bytes bytes : list bool ] */ ;
                CAR
                /* [ bytes : pair bytes bytes : list bool ] */ ;
                DIP { CDR /* [ bytes : list bool ] */ }
                /* [ bytes : bytes : list bool ] */ ;
                COMPARE
                /* [ int : list bool ] */ ;
                LT
                /* [ bool : list bool ] */ ;
                CONS
                /* [ list bool ] */ }
         /* [ pair bytes bytes : pair bytes bytes : list bool ] */ ;
         DIP { DUP
               /* [ pair bytes bytes : pair bytes bytes : list bool ] */ ;
               CAR
               /* [ bytes : pair bytes bytes : list bool ] */ ;
               DIP { CDR /* [ bytes : list bool ] */ }
               /* [ bytes : bytes : list bool ] */ ;
               COMPARE
               /* [ int : list bool ] */ ;
               GT
               /* [ bool : list bool ] */ ;
               CONS
               /* [ list bool ] */ }
         /* [ pair bytes bytes : list bool ] */ ;
         DUP
         /* [ pair bytes bytes : pair bytes bytes : list bool ] */ ;
         CAR
         /* [ bytes : pair bytes bytes : list bool ] */ ;
         DIP { CDR /* [ bytes : list bool ] */ }
         /* [ bytes : bytes : list bool ] */ ;
         COMPARE
         /* [ int : list bool ] */ ;
         EQ
         /* [ bool : list bool ] */ ;
         CONS
         /* [ list bool ] */ ;
         NIL operation
         /* [ list operation : list bool ] */ ;
         PAIR
         /* [ pair (list operation) (list bool) ] */ } }
