
./octez-client --protocol PtKathmankSpLLDALzWw7CGD2j2MtyveTwboEYokqUCP4a1LxMg --mode mockup --no-base-dir-warnings typecheck script tests_python/contracts_014/opcodes/subset.tz --details
Well typed
Gas remaining: 1039986.401 units remaining
{ parameter (pair (set string) (set string)) ;
  storage bool ;
  code { CAR
         /* [ pair (set string) (set string) ] */ ;
         DUP
         /* [ pair (set string) (set string) : pair (set string) (set string) ] */ ;
         CDR
         /* [ set string : pair (set string) (set string) ] */ ;
         DIP { CAR /* [ set string ] */ }
         /* [ set string : set string ] */ ;
         PUSH bool True
         /* [ bool : set string : set string ] */ ;
         PAIR
         /* [ pair bool (set string) : set string ] */ ;
         SWAP
         /* [ set string : pair bool (set string) ] */ ;
         ITER { DIP { DUP
                      /* [ pair bool (set string) : pair bool (set string) ] */ ;
                      DUP
                      /* [ pair bool (set string) : pair bool (set string) : pair bool (set string) ] */ ;
                      CDR
                      /* [ set string : pair bool (set string) : pair bool (set string) ] */ ;
                      DIP { CAR
                            /* [ bool : pair bool (set string) ] */ ;
                            DIP { CDR /* [ set string ] */ }
                            /* [ bool : set string ] */ }
                      /* [ set string : bool : set string ] */ }
                /* [ string : set string : bool : set string ] */ ;
                MEM
                /* [ bool : bool : set string ] */ ;
                AND
                /* [ bool : set string ] */ ;
                PAIR
                /* [ pair bool (set string) ] */ }
         /* [ pair bool (set string) ] */ ;
         CAR
         /* [ bool ] */ ;
         NIL operation
         /* [ list operation : bool ] */ ;
         PAIR
         /* [ pair (list operation) bool ] */ } }
