
./octez-client --protocol PtKathmankSpLLDALzWw7CGD2j2MtyveTwboEYokqUCP4a1LxMg --mode mockup --no-base-dir-warnings typecheck script tests_python/contracts_014/mini_scenarios/reveal_signed_preimage.tz --details
Well typed
Gas remaining: 1039978.896 units remaining
{ parameter (pair bytes signature) ;
  storage (pair bytes key) ;
  code { DUP
         /* [ pair (pair bytes signature) bytes key
            : pair (pair bytes signature) bytes key ] */ ;
         UNPAIR
         /* [ pair bytes signature : pair bytes key
            : pair (pair bytes signature) bytes key ] */ ;
         CAR
         /* [ bytes : pair bytes key : pair (pair bytes signature) bytes key ] */ ;
         SHA256
         /* [ bytes : pair bytes key : pair (pair bytes signature) bytes key ] */ ;
         DIP { CAR /* [ bytes : pair (pair bytes signature) bytes key ] */ }
         /* [ bytes : bytes : pair (pair bytes signature) bytes key ] */ ;
         ASSERT_CMPEQ ;
         DUP
         /* [ pair (pair bytes signature) bytes key
            : pair (pair bytes signature) bytes key ] */ ;
         UNPAIR
         /* [ pair bytes signature : pair bytes key
            : pair (pair bytes signature) bytes key ] */ ;
         SWAP
         /* [ pair bytes key : pair bytes signature
            : pair (pair bytes signature) bytes key ] */ ;
         DIP { UNPAIR
               /* [ bytes : signature : pair (pair bytes signature) bytes key ] */ ;
               SWAP
               /* [ signature : bytes : pair (pair bytes signature) bytes key ] */ }
         /* [ pair bytes key : signature : bytes
            : pair (pair bytes signature) bytes key ] */ ;
         CDR
         /* [ key : signature : bytes : pair (pair bytes signature) bytes key ] */ ;
         CHECK_SIGNATURE
         /* [ bool : pair (pair bytes signature) bytes key ] */ ;
         ASSERT ;
         CDR
         /* [ pair bytes key ] */ ;
         DUP
         /* [ pair bytes key : pair bytes key ] */ ;
         CDR
         /* [ key : pair bytes key ] */ ;
         HASH_KEY
         /* [ key_hash : pair bytes key ] */ ;
         IMPLICIT_ACCOUNT
         /* [ contract unit : pair bytes key ] */ ;
         BALANCE
         /* [ mutez : contract unit : pair bytes key ] */ ;
         UNIT
         /* [ unit : mutez : contract unit : pair bytes key ] */ ;
         TRANSFER_TOKENS
         /* [ operation : pair bytes key ] */ ;
         NIL operation
         /* [ list operation : operation : pair bytes key ] */ ;
         SWAP
         /* [ operation : list operation : pair bytes key ] */ ;
         CONS
         /* [ list operation : pair bytes key ] */ ;
         PAIR
         /* [ pair (list operation) bytes key ] */ } }
