
./octez-client --protocol PtKathmankSpLLDALzWw7CGD2j2MtyveTwboEYokqUCP4a1LxMg --mode mockup --no-base-dir-warnings typecheck script tests_python/contracts_014/macros/carn_and_cdrn.tz --details
Well typed
Gas remaining: 1039965.224 units remaining
{ parameter (pair nat nat nat unit) ;
  storage unit ;
  code { CAR
         /* [ pair nat nat nat unit ] */ ;
         DUP
         /* [ pair nat nat nat unit : pair nat nat nat unit ] */ ;
         CAR
         /* [ nat : pair nat nat nat unit ] */ ;
         PUSH nat 1
         /* [ nat : nat : pair nat nat nat unit ] */ ;
         ASSERT_CMPEQ ;
         DUP
         /* [ pair nat nat nat unit : pair nat nat nat unit ] */ ;
         CAR 0 ;
         PUSH nat 1
         /* [ nat : nat : pair nat nat nat unit ] */ ;
         ASSERT_CMPEQ ;
         DUP
         /* [ pair nat nat nat unit : pair nat nat nat unit ] */ ;
         CAR 1 ;
         PUSH nat 4
         /* [ nat : nat : pair nat nat nat unit ] */ ;
         ASSERT_CMPEQ ;
         DUP
         /* [ pair nat nat nat unit : pair nat nat nat unit ] */ ;
         CAR 2 ;
         PUSH nat 2
         /* [ nat : nat : pair nat nat nat unit ] */ ;
         ASSERT_CMPEQ ;
         DUP
         /* [ pair nat nat nat unit : pair nat nat nat unit ] */ ;
         CDR 3 ;
         UNIT
         /* [ unit : unit : pair nat nat nat unit ] */ ;
         ASSERT_CMPEQ ;
         DROP
         /* [] */ ;
         UNIT
         /* [ unit ] */ ;
         NIL operation
         /* [ list operation : unit ] */ ;
         PAIR
         /* [ pair (list operation) unit ] */ } }
