
./octez-client --protocol PtKathmankSpLLDALzWw7CGD2j2MtyveTwboEYokqUCP4a1LxMg --mode mockup --no-base-dir-warnings typecheck script tests_python/contracts_014/opcodes/view_op_constant.tz --details
Well typed
Gas remaining: 1039994.390 units remaining
{ parameter (pair nat address) ;
  storage nat ;
  code { CAR
         /* [ pair nat address ] */ ;
         UNPAIR
         /* [ nat : address ] */ ;
         VIEW "const" nat
         /* [ option nat ] */ ;
         IF_SOME { /* [ nat ] */ } { FAIL } ;
         NIL operation
         /* [ list operation : nat ] */ ;
         PAIR
         /* [ pair (list operation) nat ] */ } }
