
./octez-client --protocol PtKathmankSpLLDALzWw7CGD2j2MtyveTwboEYokqUCP4a1LxMg --mode mockup --no-base-dir-warnings typecheck script tests_python/contracts_014/non_regression/843_bug.tz --details
Well typed
Gas remaining: 1039993.849 units remaining
{ parameter never ;
  storage (pair address (lambda unit unit)) ;
  code { CAR
         /* [ never ] */ ;
         PUSH address "tz1KqTpEZ7Yob7QbPE4Hy4Wo8fHG8LhKxZSx"
         /* [ address : never ] */ ;
         DROP
         /* [ never ] */ ;
         NEVER
         /* [] */ } }
