
./octez-client --protocol PtKathmankSpLLDALzWw7CGD2j2MtyveTwboEYokqUCP4a1LxMg --mode mockup --no-base-dir-warnings typecheck script tests_python/contracts_014/opcodes/add.tz --details
Well typed
Gas remaining: 1039947.571 units remaining
{ parameter unit ;
  storage unit ;
  code { CAR
         /* [ unit ] */ ;
         PUSH int 2
         /* [ int : unit ] */ ;
         PUSH int 2
         /* [ int : int : unit ] */ ;
         ADD
         /* [ int : unit ] */ ;
         PUSH int 4
         /* [ int : int : unit ] */ ;
         ASSERT_CMPEQ ;
         PUSH int 2
         /* [ int : unit ] */ ;
         PUSH int 2
         /* [ int : int : unit ] */ ;
         ADD
         /* [ int : unit ] */ ;
         PUSH int 4
         /* [ int : int : unit ] */ ;
         ASSERT_CMPEQ ;
         PUSH int 2
         /* [ int : unit ] */ ;
         PUSH nat 2
         /* [ nat : int : unit ] */ ;
         ADD
         /* [ int : unit ] */ ;
         PUSH int 4
         /* [ int : int : unit ] */ ;
         ASSERT_CMPEQ ;
         PUSH nat 2
         /* [ nat : unit ] */ ;
         PUSH int 2
         /* [ int : nat : unit ] */ ;
         ADD
         /* [ int : unit ] */ ;
         PUSH int 4
         /* [ int : int : unit ] */ ;
         ASSERT_CMPEQ ;
         PUSH nat 2
         /* [ nat : unit ] */ ;
         PUSH nat 2
         /* [ nat : nat : unit ] */ ;
         ADD
         /* [ nat : unit ] */ ;
         PUSH nat 4
         /* [ nat : nat : unit ] */ ;
         ASSERT_CMPEQ ;
         PUSH int 60
         /* [ int : unit ] */ ;
         PUSH timestamp "2019-09-09T12:08:37Z"
         /* [ timestamp : int : unit ] */ ;
         ADD
         /* [ timestamp : unit ] */ ;
         PUSH timestamp "2019-09-09T12:09:37Z"
         /* [ timestamp : timestamp : unit ] */ ;
         ASSERT_CMPEQ ;
         PUSH timestamp "2019-09-09T12:08:37Z"
         /* [ timestamp : unit ] */ ;
         PUSH int 60
         /* [ int : timestamp : unit ] */ ;
         ADD
         /* [ timestamp : unit ] */ ;
         PUSH timestamp "2019-09-09T12:09:37Z"
         /* [ timestamp : timestamp : unit ] */ ;
         ASSERT_CMPEQ ;
         PUSH mutez 1000
         /* [ mutez : unit ] */ ;
         PUSH mutez 1000
         /* [ mutez : mutez : unit ] */ ;
         ADD
         /* [ mutez : unit ] */ ;
         PUSH mutez 2000
         /* [ mutez : mutez : unit ] */ ;
         ASSERT_CMPEQ ;
         NIL operation
         /* [ list operation : unit ] */ ;
         PAIR
         /* [ pair (list operation) unit ] */ } }
