
./octez-client --protocol PtKathmankSpLLDALzWw7CGD2j2MtyveTwboEYokqUCP4a1LxMg --mode mockup --no-base-dir-warnings typecheck script tests_python/contracts_014/attic/dispatch.tz --details
Well typed
Gas remaining: 1039983.006 units remaining
{ parameter (or string (pair string (lambda unit string))) ;
  storage (pair string (map string (lambda unit string))) ;
  code { DUP
         /* [ pair (or string (pair string (lambda unit string)))
                 string
                 (map string (lambda unit string))
            : pair (or string (pair string (lambda unit string)))
                 string
                 (map string (lambda unit string)) ] */ ;
         DIP { CDDR }
         /* [ pair (or string (pair string (lambda unit string)))
                 string
                 (map string (lambda unit string)) : map string (lambda unit string) ] */ ;
         CAR
         /* [ or string (pair string (lambda unit string))
            : map string (lambda unit string) ] */ ;
         IF_LEFT
           { DIP { DUP
                   /* [ map string (lambda unit string) : map string (lambda unit string) ] */ }
             /* [ string : map string (lambda unit string)
                : map string (lambda unit string) ] */ ;
             GET
             /* [ option (lambda unit string) : map string (lambda unit string) ] */ ;
             IF_NONE
               { FAIL }
               { /* [ lambda unit string : map string (lambda unit string) ] */ } ;
             UNIT
             /* [ unit : lambda unit string : map string (lambda unit string) ] */ ;
             EXEC
             /* [ string : map string (lambda unit string) ] */ }
           { DUP
             /* [ pair string (lambda unit string) : pair string (lambda unit string)
                : map string (lambda unit string) ] */ ;
             CAR
             /* [ string : pair string (lambda unit string)
                : map string (lambda unit string) ] */ ;
             DIP { CDR
                   /* [ lambda unit string : map string (lambda unit string) ] */ ;
                   SOME
                   /* [ option (lambda unit string) : map string (lambda unit string) ] */ }
             /* [ string : option (lambda unit string) : map string (lambda unit string) ] */ ;
             UPDATE
             /* [ map string (lambda unit string) ] */ ;
             PUSH string ""
             /* [ string : map string (lambda unit string) ] */ } ;
         PAIR
         /* [ pair string (map string (lambda unit string)) ] */ ;
         NIL operation
         /* [ list operation : pair string (map string (lambda unit string)) ] */ ;
         PAIR
         /* [ pair (list operation) string (map string (lambda unit string)) ] */ } }
