
./octez-client --protocol PtKathmankSpLLDALzWw7CGD2j2MtyveTwboEYokqUCP4a1LxMg --mode mockup --no-base-dir-warnings typecheck script tests_python/contracts_014/opcodes/hash_string.tz --details
Well typed
Gas remaining: 1039996.980 units remaining
{ parameter string ;
  storage bytes ;
  code { CAR
         /* [ string ] */ ;
         PACK
         /* [ bytes ] */ ;
         BLAKE2B
         /* [ bytes ] */ ;
         NIL operation
         /* [ list operation : bytes ] */ ;
         PAIR
         /* [ pair (list operation) bytes ] */ } }
