
./octez-client --protocol PtKathmankSpLLDALzWw7CGD2j2MtyveTwboEYokqUCP4a1LxMg --mode mockup --no-base-dir-warnings typecheck script tests_python/contracts_014/opcodes/level.tz --details
Well typed
Gas remaining: 1039997.443 units remaining
{ parameter unit ;
  storage nat ;
  code { DROP
         /* [] */ ;
         LEVEL
         /* [ nat ] */ ;
         NIL operation
         /* [ list operation : nat ] */ ;
         PAIR
         /* [ pair (list operation) nat ] */ } }
