
./octez-client --protocol PtKathmankSpLLDALzWw7CGD2j2MtyveTwboEYokqUCP4a1LxMg --mode mockup --no-base-dir-warnings typecheck script tests_python/contracts_014/macros/assert_gt.tz --details
Well typed
Gas remaining: 1039991.843 units remaining
{ parameter (pair int int) ;
  storage unit ;
  code { CAR
         /* [ pair int int ] */ ;
         DUP
         /* [ pair int int : pair int int ] */ ;
         CAR
         /* [ int : pair int int ] */ ;
         DIP { CDR /* [ int ] */ }
         /* [ int : int ] */ ;
         COMPARE
         /* [ int ] */ ;
         ASSERT_GT ;
         UNIT
         /* [ unit ] */ ;
         NIL operation
         /* [ list operation : unit ] */ ;
         PAIR
         /* [ pair (list operation) unit ] */ } }
