
./octez-client --protocol PtKathmankSpLLDALzWw7CGD2j2MtyveTwboEYokqUCP4a1LxMg --mode mockup --no-base-dir-warnings typecheck script tests_python/contracts_014/opcodes/balance.tz --details
Well typed
Gas remaining: 1039997.443 units remaining
{ parameter unit ;
  storage mutez ;
  code { DROP
         /* [] */ ;
         BALANCE
         /* [ mutez ] */ ;
         NIL operation
         /* [ list operation : mutez ] */ ;
         PAIR
         /* [ pair (list operation) mutez ] */ } }
