
./octez-client --protocol PtKathmankSpLLDALzWw7CGD2j2MtyveTwboEYokqUCP4a1LxMg --mode mockup --no-base-dir-warnings typecheck script tests_python/contracts_014/opcodes/bls12_381_fr_push_nat.tz --details
Well typed
Gas remaining: 1039996.436 units remaining
{ parameter unit ;
  storage (option bls12_381_fr) ;
  code { DROP
         /* [] */ ;
         PUSH bls12_381_fr 16
         /* [ bls12_381_fr ] */ ;
         SOME
         /* [ option bls12_381_fr ] */ ;
         NIL operation
         /* [ list operation : option bls12_381_fr ] */ ;
         PAIR
         /* [ pair (list operation) (option bls12_381_fr) ] */ } }
