
./octez-client --protocol PtKathmankSpLLDALzWw7CGD2j2MtyveTwboEYokqUCP4a1LxMg --mode mockup --no-base-dir-warnings typecheck script tests_python/contracts_014/opcodes/shifts.tz --details
Well typed
Gas remaining: 1039994.259 units remaining
{ parameter (or (pair nat nat) (pair nat nat)) ;
  storage (option nat) ;
  code { CAR
         /* [ or (pair nat nat) (pair nat nat) ] */ ;
         IF_LEFT
           { UNPAIR /* [ nat : nat ] */ ; LSL /* [ nat ] */ }
           { UNPAIR /* [ nat : nat ] */ ; LSR /* [ nat ] */ } ;
         SOME
         /* [ option nat ] */ ;
         NIL operation
         /* [ list operation : option nat ] */ ;
         PAIR
         /* [ pair (list operation) (option nat) ] */ } }
