
./octez-client --protocol PtKathmankSpLLDALzWw7CGD2j2MtyveTwboEYokqUCP4a1LxMg --mode mockup --no-base-dir-warnings typecheck script tests_python/contracts_014/opcodes/neg_bls12_381_fr.tz --details
Well typed
Gas remaining: 1039996.837 units remaining
{ parameter bls12_381_fr ;
  storage (option bls12_381_fr) ;
  code { CAR
         /* [ bls12_381_fr ] */ ;
         NEG
         /* [ bls12_381_fr ] */ ;
         SOME
         /* [ option bls12_381_fr ] */ ;
         NIL operation
         /* [ list operation : option bls12_381_fr ] */ ;
         PAIR
         /* [ pair (list operation) (option bls12_381_fr) ] */ } }
