
./octez-client --protocol PtKathmankSpLLDALzWw7CGD2j2MtyveTwboEYokqUCP4a1LxMg --mode mockup --no-base-dir-warnings typecheck script tests_python/contracts_014/macros/fail.tz --details
Well typed
Gas remaining: 1039998.449 units remaining
{ parameter unit ; storage unit ; code { FAIL } }
