
./octez-client --protocol PtKathmankSpLLDALzWw7CGD2j2MtyveTwboEYokqUCP4a1LxMg --mode mockup --no-base-dir-warnings typecheck script tests_python/contracts_014/opcodes/ticket_store-2.tz --details
Well typed
Gas remaining: 1039997.454 units remaining
{ parameter (option (ticket nat)) ;
  storage (option (ticket nat)) ;
  code { CAR
         /* [ option (ticket nat) ] */ ;
         NIL operation
         /* [ list operation : option (ticket nat) ] */ ;
         PAIR
         /* [ pair (list operation) (option (ticket nat)) ] */ } }
