
./octez-client --protocol PtKathmankSpLLDALzWw7CGD2j2MtyveTwboEYokqUCP4a1LxMg --mode mockup --no-base-dir-warnings typecheck script tests_python/contracts_014/opcodes/packunpack_rev.tz --details
Well typed
Gas remaining: 1039888.774 units remaining
{ parameter (pair int nat string bytes mutez bool key_hash timestamp address) ;
  storage unit ;
  code { CAR
         /* [ pair int nat string bytes mutez bool key_hash timestamp address ] */ ;
         DUP
         /* [ pair int nat string bytes mutez bool key_hash timestamp address
            : pair int nat string bytes mutez bool key_hash timestamp address ] */ ;
         CAR
         /* [ int : pair int nat string bytes mutez bool key_hash timestamp address ] */ ;
         DIP { UNPAIR
               /* [ int : pair nat string bytes mutez bool key_hash timestamp address ] */ }
         /* [ int : int : pair nat string bytes mutez bool key_hash timestamp address ] */ ;
         PACK
         /* [ bytes : int : pair nat string bytes mutez bool key_hash timestamp address ] */ ;
         UNPACK
           int
         /* [ option int : int
            : pair nat string bytes mutez bool key_hash timestamp address ] */ ;
         ASSERT_SOME ;
         ASSERT_CMPEQ ;
         DUP
         /* [ pair nat string bytes mutez bool key_hash timestamp address
            : pair nat string bytes mutez bool key_hash timestamp address ] */ ;
         CAR
         /* [ nat : pair nat string bytes mutez bool key_hash timestamp address ] */ ;
         DIP { UNPAIR /* [ nat : pair string bytes mutez bool key_hash timestamp address ] */ }
         /* [ nat : nat : pair string bytes mutez bool key_hash timestamp address ] */ ;
         PACK
         /* [ bytes : nat : pair string bytes mutez bool key_hash timestamp address ] */ ;
         UNPACK
           nat
         /* [ option nat : nat
            : pair string bytes mutez bool key_hash timestamp address ] */ ;
         ASSERT_SOME ;
         ASSERT_CMPEQ ;
         DUP
         /* [ pair string bytes mutez bool key_hash timestamp address
            : pair string bytes mutez bool key_hash timestamp address ] */ ;
         CAR
         /* [ string : pair string bytes mutez bool key_hash timestamp address ] */ ;
         DIP { UNPAIR /* [ string : pair bytes mutez bool key_hash timestamp address ] */ }
         /* [ string : string : pair bytes mutez bool key_hash timestamp address ] */ ;
         PACK
         /* [ bytes : string : pair bytes mutez bool key_hash timestamp address ] */ ;
         UNPACK
           string
         /* [ option string : string : pair bytes mutez bool key_hash timestamp address ] */ ;
         ASSERT_SOME ;
         ASSERT_CMPEQ ;
         DUP
         /* [ pair bytes mutez bool key_hash timestamp address
            : pair bytes mutez bool key_hash timestamp address ] */ ;
         CAR
         /* [ bytes : pair bytes mutez bool key_hash timestamp address ] */ ;
         DIP { UNPAIR /* [ bytes : pair mutez bool key_hash timestamp address ] */ }
         /* [ bytes : bytes : pair mutez bool key_hash timestamp address ] */ ;
         PACK
         /* [ bytes : bytes : pair mutez bool key_hash timestamp address ] */ ;
         UNPACK
           bytes
         /* [ option bytes : bytes : pair mutez bool key_hash timestamp address ] */ ;
         ASSERT_SOME ;
         ASSERT_CMPEQ ;
         DUP
         /* [ pair mutez bool key_hash timestamp address
            : pair mutez bool key_hash timestamp address ] */ ;
         CAR
         /* [ mutez : pair mutez bool key_hash timestamp address ] */ ;
         DIP { UNPAIR /* [ mutez : pair bool key_hash timestamp address ] */ }
         /* [ mutez : mutez : pair bool key_hash timestamp address ] */ ;
         PACK
         /* [ bytes : mutez : pair bool key_hash timestamp address ] */ ;
         UNPACK mutez
         /* [ option mutez : mutez : pair bool key_hash timestamp address ] */ ;
         ASSERT_SOME ;
         ASSERT_CMPEQ ;
         DUP
         /* [ pair bool key_hash timestamp address
            : pair bool key_hash timestamp address ] */ ;
         CAR
         /* [ bool : pair bool key_hash timestamp address ] */ ;
         DIP { UNPAIR /* [ bool : pair key_hash timestamp address ] */ }
         /* [ bool : bool : pair key_hash timestamp address ] */ ;
         PACK
         /* [ bytes : bool : pair key_hash timestamp address ] */ ;
         UNPACK bool
         /* [ option bool : bool : pair key_hash timestamp address ] */ ;
         ASSERT_SOME ;
         ASSERT_CMPEQ ;
         DUP
         /* [ pair key_hash timestamp address : pair key_hash timestamp address ] */ ;
         CAR
         /* [ key_hash : pair key_hash timestamp address ] */ ;
         DIP { UNPAIR /* [ key_hash : pair timestamp address ] */ }
         /* [ key_hash : key_hash : pair timestamp address ] */ ;
         PACK
         /* [ bytes : key_hash : pair timestamp address ] */ ;
         UNPACK key_hash
         /* [ option key_hash : key_hash : pair timestamp address ] */ ;
         ASSERT_SOME ;
         ASSERT_CMPEQ ;
         DUP
         /* [ pair timestamp address : pair timestamp address ] */ ;
         CAR
         /* [ timestamp : pair timestamp address ] */ ;
         DIP { UNPAIR /* [ timestamp : address ] */ }
         /* [ timestamp : timestamp : address ] */ ;
         PACK
         /* [ bytes : timestamp : address ] */ ;
         UNPACK timestamp
         /* [ option timestamp : timestamp : address ] */ ;
         ASSERT_SOME ;
         ASSERT_CMPEQ ;
         DUP
         /* [ address : address ] */ ;
         PACK
         /* [ bytes : address ] */ ;
         UNPACK address
         /* [ option address : address ] */ ;
         ASSERT_SOME ;
         ASSERT_CMPEQ ;
         PUSH int 0
         /* [ int ] */ ;
         PACK
         /* [ bytes ] */ ;
         UNPACK nat
         /* [ option nat ] */ ;
         ASSERT_SOME ;
         DROP
         /* [] */ ;
         PUSH int -1
         /* [ int ] */ ;
         PACK
         /* [ bytes ] */ ;
         UNPACK nat
         /* [ option nat ] */ ;
         ASSERT_NONE ;
         PUSH bytes 0x
         /* [ bytes ] */ ;
         UNPACK nat
         /* [ option nat ] */ ;
         ASSERT_NONE ;
         PUSH bytes 0x04
         /* [ bytes ] */ ;
         UNPACK nat
         /* [ option nat ] */ ;
         ASSERT_NONE ;
         PUSH bytes 0x05
         /* [ bytes ] */ ;
         UNPACK nat
         /* [ option nat ] */ ;
         ASSERT_NONE ;
         UNIT
         /* [ unit ] */ ;
         NIL operation
         /* [ list operation : unit ] */ ;
         PAIR
         /* [ pair (list operation) unit ] */ } }
