
./octez-client --protocol PtKathmankSpLLDALzWw7CGD2j2MtyveTwboEYokqUCP4a1LxMg --mode mockup --no-base-dir-warnings typecheck script tests_python/contracts_014/opcodes/set_id.tz --details
Well typed
Gas remaining: 1039997.680 units remaining
{ parameter (set string) ;
  storage (set string) ;
  code { CAR
         /* [ set string ] */ ;
         NIL operation
         /* [ list operation : set string ] */ ;
         PAIR
         /* [ pair (list operation) (set string) ] */ } }
