
./octez-client --protocol PtKathmankSpLLDALzWw7CGD2j2MtyveTwboEYokqUCP4a1LxMg --mode mockup --no-base-dir-warnings typecheck script tests_python/contracts_014/opcodes/comb.tz --details
Well typed
Gas remaining: 1039995.014 units remaining
{ parameter unit ;
  storage (pair nat nat nat) ;
  code { DROP
         /* [] */ ;
         PUSH nat 3
         /* [ nat ] */ ;
         PUSH nat 2
         /* [ nat : nat ] */ ;
         PUSH nat 1
         /* [ nat : nat : nat ] */ ;
         NIL operation
         /* [ list operation : nat : nat : nat ] */ ;
         PAIR 4
         /* [ pair (list operation) nat nat nat ] */ } }
