
./octez-client --protocol PtKathmankSpLLDALzWw7CGD2j2MtyveTwboEYokqUCP4a1LxMg --mode mockup --no-base-dir-warnings typecheck script tests_python/contracts_014/opcodes/str_id.tz --details
Well typed
Gas remaining: 1039997.300 units remaining
{ parameter string ;
  storage (option string) ;
  code { CAR
         /* [ string ] */ ;
         SOME
         /* [ option string ] */ ;
         NIL operation
         /* [ list operation : option string ] */ ;
         PAIR
         /* [ pair (list operation) (option string) ] */ } }
