
./octez-client --protocol PtKathmankSpLLDALzWw7CGD2j2MtyveTwboEYokqUCP4a1LxMg --mode mockup --no-base-dir-warnings typecheck script tests_python/contracts_014/opcodes/view_op_id.tz --details
Well typed
Gas remaining: 1039993.949 units remaining
{ parameter (pair nat address) ;
  storage (pair nat nat) ;
  code { CAR
         /* [ pair nat address ] */ ;
         UNPAIR
         /* [ nat : address ] */ ;
         VIEW "id" (pair nat nat)
         /* [ option (pair nat nat) ] */ ;
         IF_SOME { /* [ pair nat nat ] */ } { FAIL } ;
         NIL operation
         /* [ list operation : pair nat nat ] */ ;
         PAIR
         /* [ pair (list operation) nat nat ] */ } }
