
./octez-client --protocol PtKathmankSpLLDALzWw7CGD2j2MtyveTwboEYokqUCP4a1LxMg --mode mockup --no-base-dir-warnings typecheck script tests_python/contracts_014/opcodes/ticket_join.tz --details
Well typed
Gas remaining: 1039992.503 units remaining
{ parameter (ticket nat) ;
  storage (option (ticket nat)) ;
  code { UNPAIR
         /* [ ticket nat : option (ticket nat) ] */ ;
         SWAP
         /* [ option (ticket nat) : ticket nat ] */ ;
         IF_NONE
           { /* [ ticket nat ] */ }
           { PAIR
             /* [ pair (ticket nat) (ticket nat) ] */ ;
             JOIN_TICKETS
             /* [ option (ticket nat) ] */ ;
             ASSERT_SOME } ;
         SOME
         /* [ option (ticket nat) ] */ ;
         NIL operation
         /* [ list operation : option (ticket nat) ] */ ;
         PAIR
         /* [ pair (list operation) (option (ticket nat)) ] */ } }
