
./octez-client --protocol PtKathmankSpLLDALzWw7CGD2j2MtyveTwboEYokqUCP4a1LxMg --mode mockup --no-base-dir-warnings typecheck script tests_python/contracts_014/attic/insertion_sort.tz --details
Well typed
Gas remaining: 1039976.745 units remaining
{ parameter (list int) ;
  storage (list int) ;
  code { CAR
         /* [ list int ] */ ;
         NIL int
         /* [ list int : list int ] */ ;
         SWAP
         /* [ list int : list int ] */ ;
         ITER { SWAP
                /* [ list int : int ] */ ;
                DIIP { NIL int /* [ list int ] */ }
                /* [ list int : int : list int ] */ ;
                PUSH bool True
                /* [ bool : list int : int : list int ] */ ;
                LOOP { IF_CONS
                         { SWAP
                           /* [ list int : int : int : list int ] */ ;
                           DIP { DUP
                                 /* [ int : int : int : list int ] */ ;
                                 DIIP { DUP /* [ int : int : list int ] */ }
                                 /* [ int : int : int : int : list int ] */ ;
                                 DIP { CMPLT }
                                 /* [ int : bool : int : list int ] */ ;
                                 SWAP
                                 /* [ bool : int : int : list int ] */ }
                           /* [ list int : bool : int : int : list int ] */ ;
                           SWAP
                           /* [ bool : list int : int : int : list int ] */ ;
                           IF { DIP { SWAP
                                      /* [ int : int : list int ] */ ;
                                      DIP { CONS /* [ list int ] */ }
                                      /* [ int : list int ] */ }
                                /* [ list int : int : list int ] */ ;
                                PUSH bool True
                                /* [ bool : list int : int : list int ] */ }
                              { SWAP
                                /* [ int : list int : int : list int ] */ ;
                                CONS
                                /* [ list int : int : list int ] */ ;
                                PUSH bool False
                                /* [ bool : list int : int : list int ] */ } }
                         { NIL int
                           /* [ list int : int : list int ] */ ;
                           PUSH bool False
                           /* [ bool : list int : int : list int ] */ } }
                /* [ list int : int : list int ] */ ;
                SWAP
                /* [ int : list int : list int ] */ ;
                CONS
                /* [ list int : list int ] */ ;
                SWAP
                /* [ list int : list int ] */ ;
                ITER { CONS /* [ list int ] */ }
                /* [ list int ] */ }
         /* [ list int ] */ ;
         NIL operation
         /* [ list operation : list int ] */ ;
         PAIR
         /* [ pair (list operation) (list int) ] */ } }
