
./octez-client --protocol PtLimaPtLMwfNinJi9rCfDPWea8dFgTZ1MeJ9f1m2SRic6ayiwW --mode mockup --no-base-dir-warnings typecheck script tests_python/contracts_015/opcodes/chain_id.tz --details
Well typed
Gas remaining: 1039996.980 units remaining
{ parameter unit ;
  storage unit ;
  code { CHAIN_ID
         /* [ chain_id : pair unit unit ] */ ;
         DROP
         /* [ pair unit unit ] */ ;
         CAR
         /* [ unit ] */ ;
         NIL operation
         /* [ list operation : unit ] */ ;
         PAIR
         /* [ pair (list operation) unit ] */ } }
