
./octez-client --protocol PtLimaPtLMwfNinJi9rCfDPWea8dFgTZ1MeJ9f1m2SRic6ayiwW --mode mockup --no-base-dir-warnings typecheck script tests_python/contracts_015/mini_scenarios/replay.tz --details
Well typed
Gas remaining: 1039990.860 units remaining
{ parameter unit ;
  storage unit ;
  code { CDR
         /* [ unit ] */ ;
         NIL operation
         /* [ list operation : unit ] */ ;
         SOURCE
         /* [ address : list operation : unit ] */ ;
         CONTRACT unit
         /* [ option (contract unit) : list operation : unit ] */ ;
         ASSERT_SOME ;
         PUSH mutez 1
         /* [ mutez : contract unit : list operation : unit ] */ ;
         UNIT
         /* [ unit : mutez : contract unit : list operation : unit ] */ ;
         TRANSFER_TOKENS
         /* [ operation : list operation : unit ] */ ;
         DUP
         /* [ operation : operation : list operation : unit ] */ ;
         DIP { CONS /* [ list operation : unit ] */ }
         /* [ operation : list operation : unit ] */ ;
         CONS
         /* [ list operation : unit ] */ ;
         PAIR
         /* [ pair (list operation) unit ] */ } }
