
./octez-client --protocol PtLimaPtLMwfNinJi9rCfDPWea8dFgTZ1MeJ9f1m2SRic6ayiwW --mode mockup --no-base-dir-warnings typecheck script tests_python/contracts_015/opcodes/contains_all.tz --details
Well typed
Gas remaining: 1039974.767 units remaining
{ parameter (pair (list string) (list string)) ;
  storage (option bool) ;
  code { CAR
         /* [ pair (list string) (list string) ] */ ;
         DUP
         /* [ pair (list string) (list string) : pair (list string) (list string) ] */ ;
         CAR
         /* [ list string : pair (list string) (list string) ] */ ;
         DIP { CDR /* [ list string ] */ }
         /* [ list string : list string ] */ ;
         EMPTY_SET string
         /* [ set string : list string : list string ] */ ;
         SWAP
         /* [ list string : set string : list string ] */ ;
         ITER { PAIR
                /* [ pair string (set string) : list string ] */ ;
                DUP
                /* [ pair string (set string) : pair string (set string) : list string ] */ ;
                CAR
                /* [ string : pair string (set string) : list string ] */ ;
                DIP { CDR /* [ set string : list string ] */ }
                /* [ string : set string : list string ] */ ;
                PUSH bool True
                /* [ bool : string : set string : list string ] */ ;
                SWAP
                /* [ string : bool : set string : list string ] */ ;
                UPDATE
                /* [ set string : list string ] */ }
         /* [ set string : list string ] */ ;
         PUSH bool True
         /* [ bool : set string : list string ] */ ;
         SWAP
         /* [ set string : bool : list string ] */ ;
         PAIR
         /* [ pair (set string) bool : list string ] */ ;
         SWAP
         /* [ list string : pair (set string) bool ] */ ;
         ITER { PAIR
                /* [ pair string (set string) bool ] */ ;
                DUP
                /* [ pair string (set string) bool : pair string (set string) bool ] */ ;
                DUP
                /* [ pair string (set string) bool : pair string (set string) bool
                   : pair string (set string) bool ] */ ;
                CAR
                /* [ string : pair string (set string) bool : pair string (set string) bool ] */ ;
                DIP { CDAR ;
                      DIP { CDDR }
                      /* [ set string : bool ] */ ;
                      DUP
                      /* [ set string : set string : bool ] */ }
                /* [ string : set string : set string : bool ] */ ;
                MEM
                /* [ bool : set string : bool ] */ ;
                DIP { SWAP /* [ bool : set string ] */ }
                /* [ bool : bool : set string ] */ ;
                AND
                /* [ bool : set string ] */ ;
                SWAP
                /* [ set string : bool ] */ ;
                PAIR
                /* [ pair (set string) bool ] */ }
         /* [ pair (set string) bool ] */ ;
         CDR
         /* [ bool ] */ ;
         SOME
         /* [ option bool ] */ ;
         NIL operation
         /* [ list operation : option bool ] */ ;
         PAIR
         /* [ pair (list operation) (option bool) ] */ } }
