
./octez-client --protocol PtLimaPtLMwfNinJi9rCfDPWea8dFgTZ1MeJ9f1m2SRic6ayiwW --mode mockup --no-base-dir-warnings typecheck script tests_python/contracts_015/opcodes/merge_comparable_pairs.tz --details
Well typed
Gas remaining: 1039992.173 units remaining
{ parameter (set (pair (nat %n) (pair %p (string %s) (int %i)))) ;
  storage nat ;
  code { UNPAIR
         /* [ set (pair nat string int) : nat ] */ ;
         SWAP
         /* [ nat : set (pair nat string int) ] */ ;
         PUSH nat 3
         /* [ nat : nat : set (pair nat string int) ] */ ;
         COMPARE
         /* [ int : set (pair nat string int) ] */ ;
         GT
         /* [ bool : set (pair nat string int) ] */ ;
         IF { /* [ set (pair nat string int) ] */ }
            { DROP
              /* [] */ ;
              EMPTY_SET (pair nat (pair string int))
              /* [ set (pair nat string int) ] */ } ;
         SIZE
         /* [ nat ] */ ;
         NIL operation
         /* [ list operation : nat ] */ ;
         PAIR
         /* [ pair (list operation) nat ] */ } }
