
./octez-client --protocol PtLimaPtLMwfNinJi9rCfDPWea8dFgTZ1MeJ9f1m2SRic6ayiwW --mode mockup --no-base-dir-warnings typecheck script tests_python/contracts_015/opcodes/view_toplevel_lib.tz --details
Well typed
Gas remaining: 1039947.179 units remaining
{ parameter nat ;
  storage nat ;
  code { CAR
         /* [ nat ] */ ;
         NIL operation
         /* [ list operation : nat ] */ ;
         PAIR
         /* [ pair (list operation) nat ] */ } ;
  view "add" nat nat { UNPAIR /* [ nat : nat ] */ ; ADD /* [ nat ] */ } ;
  view "id" nat (pair nat nat) { /* [ pair nat nat ] */ } ;
  view "test_failwith" nat (pair nat nat) { FAILWITH /* [] */ } ;
  view "step_constants"
       unit
       (pair (pair mutez mutez) (pair (pair address address) address))
       { DROP
         /* [] */ ;
         SOURCE
         /* [ address ] */ ;
         SENDER
         /* [ address : address ] */ ;
         SELF_ADDRESS
         /* [ address : address : address ] */ ;
         PAIR
         /* [ pair address address : address ] */ ;
         PAIR
         /* [ pair (pair address address) address ] */ ;
         BALANCE
         /* [ mutez : pair (pair address address) address ] */ ;
         AMOUNT
         /* [ mutez : mutez : pair (pair address address) address ] */ ;
         PAIR
         /* [ pair mutez mutez : pair (pair address address) address ] */ ;
         PAIR
         /* [ pair (pair mutez mutez) (pair address address) address ] */ } ;
  view "succ"
       (pair nat address)
       nat
       { CAR
         /* [ pair nat address ] */ ;
         UNPAIR
         /* [ nat : address ] */ ;
         PUSH nat 1
         /* [ nat : nat : address ] */ ;
         ADD
         /* [ nat : address ] */ ;
         PAIR
         /* [ pair nat address ] */ ;
         DUP
         /* [ pair nat address : pair nat address ] */ ;
         CDR
         /* [ address : pair nat address ] */ ;
         SWAP
         /* [ pair nat address : address ] */ ;
         VIEW "is_twenty" nat
         /* [ option nat ] */ ;
         ASSERT_SOME } ;
  view "is_twenty"
       (pair nat address)
       nat
       { CAR
         /* [ pair nat address ] */ ;
         DUP
         /* [ pair nat address : pair nat address ] */ ;
         CAR
         /* [ nat : pair nat address ] */ ;
         PUSH nat 20
         /* [ nat : nat : pair nat address ] */ ;
         COMPARE
         /* [ int : pair nat address ] */ ;
         EQ
         /* [ bool : pair nat address ] */ ;
         IF { CAR /* [ nat ] */ }
            { DUP
              /* [ pair nat address : pair nat address ] */ ;
              CDR
              /* [ address : pair nat address ] */ ;
              SWAP
              /* [ pair nat address : address ] */ ;
              VIEW "succ" nat
              /* [ option nat ] */ ;
              ASSERT_SOME } } ;
  view "fib"
       nat
       nat
       { CAR
         /* [ nat ] */ ;
         DUP
         /* [ nat : nat ] */ ;
         PUSH nat 0
         /* [ nat : nat : nat ] */ ;
         COMPARE
         /* [ int : nat ] */ ;
         EQ
         /* [ bool : nat ] */ ;
         IF { /* [ nat ] */ }
            { DUP
              /* [ nat : nat ] */ ;
              PUSH nat 1
              /* [ nat : nat : nat ] */ ;
              COMPARE
              /* [ int : nat ] */ ;
              EQ
              /* [ bool : nat ] */ ;
              IF { /* [ nat ] */ }
                 { DUP
                   /* [ nat : nat ] */ ;
                   PUSH nat 1
                   /* [ nat : nat : nat ] */ ;
                   SWAP
                   /* [ nat : nat : nat ] */ ;
                   SUB
                   /* [ int : nat ] */ ;
                   ABS
                   /* [ nat : nat ] */ ;
                   SELF_ADDRESS
                   /* [ address : nat : nat ] */ ;
                   SWAP
                   /* [ nat : address : nat ] */ ;
                   VIEW "fib" nat
                   /* [ option nat : nat ] */ ;
                   IF_SOME
                     { SWAP
                       /* [ nat : nat ] */ ;
                       PUSH nat 2
                       /* [ nat : nat : nat ] */ ;
                       SWAP
                       /* [ nat : nat : nat ] */ ;
                       SUB
                       /* [ int : nat ] */ ;
                       ABS
                       /* [ nat : nat ] */ ;
                       SELF_ADDRESS
                       /* [ address : nat : nat ] */ ;
                       SWAP
                       /* [ nat : address : nat ] */ ;
                       VIEW "fib" nat
                       /* [ option nat : nat ] */ ;
                       IF_SOME { ADD /* [ nat ] */ } { FAIL } }
                     { FAIL } } } } }
