
./octez-client --protocol PtLimaPtLMwfNinJi9rCfDPWea8dFgTZ1MeJ9f1m2SRic6ayiwW --mode mockup --no-base-dir-warnings typecheck script tests_python/contracts_015/opcodes/get_map_value.tz --details
Well typed
Gas remaining: 1039992.607 units remaining
{ parameter string ;
  storage (pair (option string) (map string string)) ;
  code { DUP
         /* [ pair string (option string) (map string string)
            : pair string (option string) (map string string) ] */ ;
         CAR
         /* [ string : pair string (option string) (map string string) ] */ ;
         DIP { CDDR ; DUP /* [ map string string : map string string ] */ }
         /* [ string : map string string : map string string ] */ ;
         GET
         /* [ option string : map string string ] */ ;
         PAIR
         /* [ pair (option string) (map string string) ] */ ;
         NIL operation
         /* [ list operation : pair (option string) (map string string) ] */ ;
         PAIR
         /* [ pair (list operation) (option string) (map string string) ] */ } }
