
./octez-client --protocol PtLimaPtLMwfNinJi9rCfDPWea8dFgTZ1MeJ9f1m2SRic6ayiwW --mode mockup --no-base-dir-warnings typecheck script tests_python/contracts_015/opcodes/ticketer-2.tz --details
Well typed
Gas remaining: 1039986.226 units remaining
{ parameter (pair (pair address nat) nat) ;
  storage unit ;
  code { CAR
         /* [ pair (pair address nat) nat ] */ ;
         UNPAIR
         /* [ pair address nat : nat ] */ ;
         UNPAIR
         /* [ address : nat : nat ] */ ;
         CONTRACT (ticket nat)
         /* [ option (contract (ticket nat)) : nat : nat ] */ ;
         ASSERT_SOME ;
         DIP { TICKET /* [ option (ticket nat) ] */ ; ASSERT_SOME }
         /* [ contract (ticket nat) : ticket nat ] */ ;
         SWAP
         /* [ ticket nat : contract (ticket nat) ] */ ;
         DIP { PUSH mutez 0 /* [ mutez : contract (ticket nat) ] */ }
         /* [ ticket nat : mutez : contract (ticket nat) ] */ ;
         TRANSFER_TOKENS
         /* [ operation ] */ ;
         NIL operation
         /* [ list operation : operation ] */ ;
         SWAP
         /* [ operation : list operation ] */ ;
         CONS
         /* [ list operation ] */ ;
         UNIT
         /* [ unit : list operation ] */ ;
         SWAP
         /* [ list operation : unit ] */ ;
         PAIR
         /* [ pair (list operation) unit ] */ } }
