
./octez-client --protocol PtLimaPtLMwfNinJi9rCfDPWea8dFgTZ1MeJ9f1m2SRic6ayiwW --mode mockup --no-base-dir-warnings typecheck script tests_python/contracts_015/opcodes/slice.tz --details
Well typed
Gas remaining: 1039993.747 units remaining
{ parameter (pair nat nat) ;
  storage (option string) ;
  code { UNPAIR
         /* [ pair nat nat : option string ] */ ;
         SWAP
         /* [ option string : pair nat nat ] */ ;
         IF_SOME
           { SWAP
             /* [ pair nat nat : string ] */ ;
             UNPAIR
             /* [ nat : nat : string ] */ ;
             SLICE
             /* [ option string ] */ }
           { DROP /* [] */ ; NONE string /* [ option string ] */ } ;
         NIL operation
         /* [ list operation : option string ] */ ;
         PAIR
         /* [ pair (list operation) (option string) ] */ } }
