
./octez-client --protocol PtLimaPtLMwfNinJi9rCfDPWea8dFgTZ1MeJ9f1m2SRic6ayiwW --mode mockup --no-base-dir-warnings typecheck script tests_python/contracts_015/opcodes/store_now.tz --details
Well typed
Gas remaining: 1039997.443 units remaining
{ parameter unit ;
  storage timestamp ;
  code { DROP
         /* [] */ ;
         NOW
         /* [ timestamp ] */ ;
         NIL operation
         /* [ list operation : timestamp ] */ ;
         PAIR
         /* [ pair (list operation) timestamp ] */ } }
