
./octez-client --protocol PtLimaPtLMwfNinJi9rCfDPWea8dFgTZ1MeJ9f1m2SRic6ayiwW --mode mockup --no-base-dir-warnings typecheck script tests_python/contracts_015/mini_scenarios/multiple_en2.tz --details
Well typed
Gas remaining: 1039928.052 units remaining
{ parameter unit ;
  storage (option address) ;
  code { SENDER
         /* [ address : pair unit (option address) ] */ ;
         SELF
         /* [ contract unit : address : pair unit (option address) ] */ ;
         ADDRESS
         /* [ address : address : pair unit (option address) ] */ ;
         { /* [ pair (or (or nat nat) unit) int ] */
           COMPARE
           /* [ mutez : mutez : pair (or (or nat nat) unit) int ] */ ;
           EQ
           /* [ bool : pair unit (option address) ] */ ;
           IF { CDR
                /* [ option address ] */ ;
                { /* [ mutez : mutez : pair (or (or nat nat) unit) int ] */
                  IF_NONE
                    { { /* [ pair (or (or nat nat) unit) int ] */ UNIT /* [ unit ] */ ; FAILWITH /* [] */ } }
                    { /* [ pair (or (or nat nat) unit) int ] */ }
                  /* [ bool : pair (or (or nat nat) unit) int ] */ } ;
                DIP { NIL operation
                          /* [ pair (or (or nat nat) unit) int : pair (or (or nat nat) unit) int ] */
                      /* [ list operation ] */ }
                /* [] */ ;
                DUP
                /* [ or (or nat nat) unit : pair (or (or nat nat) unit) int ] */ ;
                CONTRACT %add unit
                /* [ or (or nat nat) unit : int ] */ ;
                { /* [ pair (or (or nat nat) unit) int ] */
                  IF_NONE
                    { /* [ address : list operation ] */ }
                    { { UNIT /* [ int ] */ ; FAILWITH /* [] */ } } } ;
                DUP
                /* [ int : nat ] */ ;
                CONTRACT %fact nat
                /* [ int ] */ ;
                { /* [ unit : int ] */
                  IF_NONE { /* [] */ } { { UNIT /* [ list operation : int ] */ ; FAILWITH /* [] */ } }
                  /* [] */ } ;
                DUP
                /* [ pair (list operation) int ] */ ;
                CONTRACT %add nat
                /* [ option (contract nat) : address : list operation ] */ ;
                { IF_NONE
                    { { UNIT /* [ unit : address : list operation ] */ ; FAILWITH /* [] */ } }
                    { /* [ contract nat : address : list operation ] */ } } ;
                PUSH mutez 0
                /* [ mutez : contract nat : address : list operation ] */ ;
                PUSH nat 12
                /* [ nat : mutez : contract nat : address : list operation ] */ ;
                TRANSFER_TOKENS
                /* [ operation : address : list operation ] */ ;
                SWAP
                /* [ address : operation : list operation ] */ ;
                DIP { CONS /* [ list operation ] */ }
                /* [ address : list operation ] */ ;
                DUP
                /* [ address : address : list operation ] */ ;
                CONTRACT unit
                /* [ option (contract unit) : address : list operation ] */ ;
                { IF_NONE
                    { { UNIT /* [ unit : address : list operation ] */ ; FAILWITH /* [] */ } }
                    { /* [ contract unit : address : list operation ] */ } } ;
                PUSH mutez 0
                /* [ mutez : contract unit : address : list operation ] */ ;
                PUSH unit Unit
                /* [ unit : mutez : contract unit : address : list operation ] */ ;
                TRANSFER_TOKENS
                /* [ operation : address : list operation ] */ ;
                SWAP
                /* [ address : operation : list operation ] */ ;
                DIP { CONS /* [ list operation ] */ }
                /* [ address : list operation ] */ ;
                DUP
                /* [ address : address : list operation ] */ ;
                CONTRACT %sub nat
                /* [ option (contract nat) : address : list operation ] */ ;
                { IF_NONE
                    { { UNIT /* [ unit : address : list operation ] */ ; FAILWITH /* [] */ } }
                    { /* [ contract nat : address : list operation ] */ } } ;
                PUSH mutez 0
                /* [ mutez : contract nat : address : list operation ] */ ;
                PUSH nat 3
                /* [ nat : mutez : contract nat : address : list operation ] */ ;
                TRANSFER_TOKENS
                /* [ operation : address : list operation ] */ ;
                SWAP
                /* [ address : operation : list operation ] */ ;
                DIP { CONS /* [ list operation ] */ }
                /* [ address : list operation ] */ ;
                DUP
                /* [ address : address : list operation ] */ ;
                CONTRACT %add nat
                /* [ option (contract nat) : address : list operation ] */ ;
                { IF_NONE
                    { { UNIT /* [ unit : address : list operation ] */ ; FAILWITH /* [] */ } }
                    { /* [ contract nat : address : list operation ] */ } } ;
                PUSH mutez 0
                /* [ mutez : contract nat : address : list operation ] */ ;
                PUSH nat 5
                /* [ nat : mutez : contract nat : address : list operation ] */ ;
                TRANSFER_TOKENS
                /* [ operation : address : list operation ] */ ;
                SWAP
                /* [ address : operation : list operation ] */ ;
                DIP { CONS /* [ list operation ] */ }
                /* [ address : list operation ] */ ;
                DROP
                /* [ list operation ] */ ;
                DIP { NONE address /* [ option address ] */ }
                /* [ list operation : option address ] */ ;
                PAIR
                /* [ pair (list operation) (option address) ] */ }
              { CAR
                /* [ unit ] */ ;
                DUP
                /* [ unit : unit ] */ ;
                DIP { DIP { PUSH int 0
                            /* [ int ] */ ;
                            PUSH mutez 0
                            /* [ mutez : int ] */ ;
                            NONE key_hash
                            /* [ option key_hash : mutez : int ] */ }
                      /* [ unit : option key_hash : mutez : int ] */ ;
                      DROP
                      /* [ option key_hash : mutez : int ] */ ;
                      CREATE_CONTRACT
                        { parameter (or (or (nat %add) (nat %sub)) (unit %default)) ;
                          storage int ;
                          code { AMOUNT ;
                                 PUSH mutez 0 ;
                                 { { COMPARE ; EQ } ; IF {} { { UNIT ; FAILWITH } } } ;
                                 { { DUP ; CAR ; DIP { CDR } } } ;
                                 IF_LEFT
                                   { IF_LEFT { ADD } { SWAP ; SUB } }
                                   { DROP ; DROP ; PUSH int 0 } ;
                                 NIL operation ;
                                 PAIR } }
                      /* [ operation : address ] */ }
                /* [ unit : operation : address ] */ ;
                DIP { SELF
                      /* [ contract unit : operation : address ] */ ;
                      PUSH mutez 0
                      /* [ mutez : contract unit : operation : address ] */ }
                /* [ unit : mutez : contract unit : operation : address ] */ ;
                TRANSFER_TOKENS
                /* [ operation : operation : address ] */ ;
                NIL operation
                /* [ list operation : operation : operation : address ] */ ;
                SWAP
                /* [ operation : list operation : operation : address ] */ ;
                CONS
                /* [ list operation : operation : address ] */ ;
                SWAP
                /* [ operation : list operation : address ] */ ;
                CONS
                /* [ list operation : address ] */ ;
                DIP { SOME /* [ option address ] */ }
                /* [ list operation : option address ] */ ;
                PAIR
                /* [ pair (list operation) (option address) ] */ } } } }
