
./octez-client --protocol PtLimaPtLMwfNinJi9rCfDPWea8dFgTZ1MeJ9f1m2SRic6ayiwW --mode mockup --no-base-dir-warnings typecheck script tests_python/contracts_015/opcodes/set_iter.tz --details
Well typed
Gas remaining: 1039995.593 units remaining
{ parameter (set int) ;
  storage int ;
  code { CAR
         /* [ set int ] */ ;
         PUSH int 0
         /* [ int : set int ] */ ;
         SWAP
         /* [ set int : int ] */ ;
         ITER { ADD /* [ int ] */ }
         /* [ int ] */ ;
         NIL operation
         /* [ list operation : int ] */ ;
         PAIR
         /* [ pair (list operation) int ] */ } }
