
./octez-client --protocol PtLimaPtLMwfNinJi9rCfDPWea8dFgTZ1MeJ9f1m2SRic6ayiwW --mode mockup --no-base-dir-warnings typecheck script tests_python/contracts_015/mini_scenarios/create_contract.tz --details
Well typed
Gas remaining: 1039973.277 units remaining
{ parameter (option address) ;
  storage unit ;
  code { /* [ pair string string ] */
         CAR
         /* [ list operation : string ] */ ;
         IF_NONE
           { /* [ list operation : string ] */
             PUSH string "dummy"
             /* [ string ] */ ;
             PUSH mutez 100000000
             /* [ mutez : string ] */ ;
             NONE key_hash
             /* [ option key_hash : mutez : string ] */ ;
             CREATE_CONTRACT
               { parameter string ;
                 storage string ;
                 code { CAR ; NIL operation ; PAIR } }
             /* [ operation : address ] */ ;
             DIP { SOME
                   /* [ option address ] */ ;
                   DIP { SELF
                         /* [ contract (option address) ] */ ;
                         PUSH mutez 0
                         /* [ mutez : contract (option address) ] */ }
                   /* [ option address : mutez : contract (option address) ] */ ;
                   TRANSFER_TOKENS
                   /* [ operation ] */ ;
                   NIL operation
                   /* [ list operation : operation ] */ ;
                   SWAP
                   /* [ operation : list operation ] */ ;
                   CONS
                   /* [ list operation ] */ }
             /* [ operation : list operation ] */ ;
             CONS
             /* [ list operation ] */ ;
             UNIT
             /* [ unit : list operation ] */ ;
             SWAP
             /* [ list operation : unit ] */ ;
             PAIR
             /* [ pair (list operation) unit ] */ }
           { SELF
             /* [ contract (option address) : address ] */ ;
             ADDRESS
             /* [ address : address ] */ ;
             SENDER
             /* [ address : address : address ] */ ;
             IFCMPNEQ { FAIL } { /* [ address ] */ } ;
             CONTRACT string
             /* [ option (contract string) ] */ ;
             IF_SOME { /* [ contract string ] */ } { FAIL } ;
             PUSH mutez 0
             /* [ mutez : contract string ] */ ;
             PUSH string "abcdefg"
             /* [ string : mutez : contract string ] */ ;
             TRANSFER_TOKENS
             /* [ operation ] */ ;
             NIL operation
             /* [ list operation : operation ] */ ;
             SWAP
             /* [ operation : list operation ] */ ;
             CONS
             /* [ list operation ] */ ;
             UNIT
             /* [ unit : list operation ] */ ;
             SWAP
             /* [ list operation : unit ] */ ;
             PAIR
             /* [ pair (list operation) unit ] */ } } }
