
./octez-client --protocol PtLimaPtLMwfNinJi9rCfDPWea8dFgTZ1MeJ9f1m2SRic6ayiwW --mode mockup --no-base-dir-warnings typecheck script tests_python/contracts_015/opcodes/get_big_map_value.tz --details
Well typed
Gas remaining: 1039992.079 units remaining
{ parameter string ;
  storage (pair (big_map string string) (option string)) ;
  code { DUP
         /* [ pair string (big_map string string) (option string)
            : pair string (big_map string string) (option string) ] */ ;
         CAR
         /* [ string : pair string (big_map string string) (option string) ] */ ;
         DIP { CDAR ; DUP /* [ big_map string string : big_map string string ] */ }
         /* [ string : big_map string string : big_map string string ] */ ;
         GET
         /* [ option string : big_map string string ] */ ;
         SWAP
         /* [ big_map string string : option string ] */ ;
         PAIR
         /* [ pair (big_map string string) (option string) ] */ ;
         NIL operation
         /* [ list operation : pair (big_map string string) (option string) ] */ ;
         PAIR
         /* [ pair (list operation) (big_map string string) (option string) ] */ } }
