
./octez-client --protocol PtLimaPtLMwfNinJi9rCfDPWea8dFgTZ1MeJ9f1m2SRic6ayiwW --mode mockup --no-base-dir-warnings typecheck script tests_python/contracts_015/opcodes/self.tz --details
Well typed
Gas remaining: 1039996.945 units remaining
{ parameter unit ;
  storage address ;
  code { DROP
         /* [] */ ;
         SELF
         /* [ contract unit ] */ ;
         ADDRESS
         /* [ address ] */ ;
         NIL operation
         /* [ list operation : address ] */ ;
         PAIR
         /* [ pair (list operation) address ] */ } }
