
./octez-client --protocol PtLimaPtLMwfNinJi9rCfDPWea8dFgTZ1MeJ9f1m2SRic6ayiwW --mode mockup --no-base-dir-warnings typecheck script tests_python/contracts_015/opcodes/view_mutual_recursion.tz --details
Well typed
Gas remaining: 1039993.335 units remaining
{ parameter (pair nat address) ;
  storage nat ;
  code { CAR
         /* [ pair nat address ] */ ;
         DUP
         /* [ pair nat address : pair nat address ] */ ;
         CDR
         /* [ address : pair nat address ] */ ;
         SWAP
         /* [ pair nat address : address ] */ ;
         VIEW "is_twenty" nat
         /* [ option nat ] */ ;
         IF_SOME
           { NIL operation
             /* [ list operation : nat ] */ ;
             PAIR
             /* [ pair (list operation) nat ] */ }
           { FAIL } } }
