
./octez-client --protocol PtLimaPtLMwfNinJi9rCfDPWea8dFgTZ1MeJ9f1m2SRic6ayiwW --mode mockup --no-base-dir-warnings typecheck script tests_python/contracts_015/opcodes/munch.tz --details
Well typed
Gas remaining: 1039997.065 units remaining
{ parameter
    (or (bytes %bytes) (or (lambda %lambda unit unit) (or (nat %nat) (list %list_nat nat)))) ;
  storage unit ;
  code { CDR
         /* [ unit ] */ ;
         NIL operation
         /* [ list operation : unit ] */ ;
         PAIR
         /* [ pair (list operation) unit ] */ } }
