
./octez-client --protocol PtLimaPtLMwfNinJi9rCfDPWea8dFgTZ1MeJ9f1m2SRic6ayiwW --mode mockup --no-base-dir-warnings typecheck script tests_python/contracts_015/opcodes/list_map_block.tz --details
Well typed
Gas remaining: 1039991.624 units remaining
{ parameter (list int) ;
  storage (list int) ;
  code { CAR
         /* [ list int ] */ ;
         PUSH int 0
         /* [ int : list int ] */ ;
         SWAP
         /* [ list int : int ] */ ;
         MAP { DIP { DUP /* [ int : int ] */ }
               /* [ int : int : int ] */ ;
               ADD
               /* [ int : int ] */ ;
               DIP { PUSH int 1 /* [ int : int ] */ ; ADD /* [ int ] */ }
               /* [ int : int ] */ }
         /* [ list int : int ] */ ;
         NIL operation
         /* [ list operation : list int : int ] */ ;
         PAIR
         /* [ pair (list operation) (list int) : int ] */ ;
         DIP { DROP /* [] */ }
         /* [ pair (list operation) (list int) ] */ } }
