
./octez-client --protocol PtLimaPtLMwfNinJi9rCfDPWea8dFgTZ1MeJ9f1m2SRic6ayiwW --mode mockup --no-base-dir-warnings typecheck script tests_python/contracts_015/attic/scrutable_reservoir.tz --details
Well typed
Gas remaining: 1039889.171 units remaining
{ parameter unit ;
  storage
    (pair string
          (pair timestamp (pair (pair mutez mutez) (pair address (pair address address))))) ;
  code { DUP
         /* [ pair unit string timestamp (pair mutez mutez) address address address
            : pair unit string timestamp (pair mutez mutez) address address address ] */ ;
         CDAR ;
         PUSH string
              "open"
         /* [ string : string
            : pair unit string timestamp (pair mutez mutez) address address address ] */ ;
         COMPARE
         /* [ int
            : pair unit string timestamp (pair mutez mutez) address address address ] */ ;
         NEQ
         /* [ bool
            : pair unit string timestamp (pair mutez mutez) address address address ] */ ;
         IF { FAIL }
            { DUP
              /* [ pair unit string timestamp (pair mutez mutez) address address address
                 : pair unit string timestamp (pair mutez mutez) address address address ] */ ;
              CDDAR ;
              NOW
              /* [ timestamp : timestamp
                 : pair unit string timestamp (pair mutez mutez) address address address ] */ ;
              COMPARE
              /* [ int
                 : pair unit string timestamp (pair mutez mutez) address address address ] */ ;
              LT
              /* [ bool
                 : pair unit string timestamp (pair mutez mutez) address address address ] */ ;
              IF { PUSH mutez
                        0
                   /* [ mutez
                      : pair unit string timestamp (pair mutez mutez) address address address ] */ ;
                   DIP { DUP
                         /* [ pair unit string timestamp (pair mutez mutez) address address address
                            : pair unit string timestamp (pair mutez mutez) address address address ] */ ;
                         CDDDAAR }
                   /* [ mutez : mutez
                      : pair unit string timestamp (pair mutez mutez) address address address ] */ ;
                   ADD
                   /* [ mutez
                      : pair unit string timestamp (pair mutez mutez) address address address ] */ ;
                   DIP { DUP
                         /* [ pair unit string timestamp (pair mutez mutez) address address address
                            : pair unit string timestamp (pair mutez mutez) address address address ] */ ;
                         CDDDADR }
                   /* [ mutez : mutez
                      : pair unit string timestamp (pair mutez mutez) address address address ] */ ;
                   ADD
                   /* [ mutez
                      : pair unit string timestamp (pair mutez mutez) address address address ] */ ;
                   BALANCE
                   /* [ mutez : mutez
                      : pair unit string timestamp (pair mutez mutez) address address address ] */ ;
                   COMPARE
                   /* [ int
                      : pair unit string timestamp (pair mutez mutez) address address address ] */ ;
                   LT
                   /* [ bool
                      : pair unit string timestamp (pair mutez mutez) address address address ] */ ;
                   IF { CDR
                        /* [ pair string timestamp (pair mutez mutez) address address address ] */ ;
                        NIL operation
                        /* [ list operation
                           : pair string timestamp (pair mutez mutez) address address address ] */ ;
                        PAIR
                        /* [ pair (list operation) string timestamp (pair mutez mutez) address address address ] */ }
                      { CDDR ;
                        PUSH string
                             "success"
                        /* [ string : pair timestamp (pair mutez mutez) address address address ] */ ;
                        PAIR
                        /* [ pair string timestamp (pair mutez mutez) address address address ] */ ;
                        DUP
                        /* [ pair string timestamp (pair mutez mutez) address address address
                           : pair string timestamp (pair mutez mutez) address address address ] */ ;
                        CDDAAR ;
                        DIP { DUP
                              /* [ pair string timestamp (pair mutez mutez) address address address
                                 : pair string timestamp (pair mutez mutez) address address address ] */ ;
                              CDDDAR }
                        /* [ mutez : address
                           : pair string timestamp (pair mutez mutez) address address address ] */ ;
                        DIP { CONTRACT
                                unit
                              /* [ option (contract unit)
                                 : pair string timestamp (pair mutez mutez) address address address ] */ ;
                              ASSERT_SOME }
                        /* [ mutez : contract unit
                           : pair string timestamp (pair mutez mutez) address address address ] */ ;
                        UNIT
                        /* [ unit : mutez : contract unit
                           : pair string timestamp (pair mutez mutez) address address address ] */ ;
                        TRANSFER_TOKENS
                        /* [ operation
                           : pair string timestamp (pair mutez mutez) address address address ] */ ;
                        DIP { DUP
                              /* [ pair string timestamp (pair mutez mutez) address address address
                                 : pair string timestamp (pair mutez mutez) address address address ] */ ;
                              CDDADR ;
                              DIP { DUP
                                    /* [ pair string timestamp (pair mutez mutez) address address address
                                       : pair string timestamp (pair mutez mutez) address address address ] */ ;
                                    CDDDDAR }
                              /* [ mutez : address
                                 : pair string timestamp (pair mutez mutez) address address address ] */ ;
                              DIP { CONTRACT
                                      unit
                                    /* [ option (contract unit)
                                       : pair string timestamp (pair mutez mutez) address address address ] */ ;
                                    ASSERT_SOME }
                              /* [ mutez : contract unit
                                 : pair string timestamp (pair mutez mutez) address address address ] */ ;
                              UNIT
                              /* [ unit : mutez : contract unit
                                 : pair string timestamp (pair mutez mutez) address address address ] */ ;
                              TRANSFER_TOKENS
                              /* [ operation
                                 : pair string timestamp (pair mutez mutez) address address address ] */ }
                        /* [ operation : operation
                           : pair string timestamp (pair mutez mutez) address address address ] */ ;
                        NIL operation
                        /* [ list operation : operation : operation
                           : pair string timestamp (pair mutez mutez) address address address ] */ ;
                        SWAP
                        /* [ operation : list operation : operation
                           : pair string timestamp (pair mutez mutez) address address address ] */ ;
                        CONS
                        /* [ list operation : operation
                           : pair string timestamp (pair mutez mutez) address address address ] */ ;
                        SWAP
                        /* [ operation : list operation
                           : pair string timestamp (pair mutez mutez) address address address ] */ ;
                        CONS
                        /* [ list operation
                           : pair string timestamp (pair mutez mutez) address address address ] */ ;
                        PAIR
                        /* [ pair (list operation) string timestamp (pair mutez mutez) address address address ] */ } }
                 { CDDR ;
                   PUSH string
                        "timeout"
                   /* [ string : pair timestamp (pair mutez mutez) address address address ] */ ;
                   PAIR
                   /* [ pair string timestamp (pair mutez mutez) address address address ] */ ;
                   BALANCE
                   /* [ mutez : pair string timestamp (pair mutez mutez) address address address ] */ ;
                   DIP { DUP
                         /* [ pair string timestamp (pair mutez mutez) address address address
                            : pair string timestamp (pair mutez mutez) address address address ] */ ;
                         CDDAAR }
                   /* [ mutez : mutez
                      : pair string timestamp (pair mutez mutez) address address address ] */ ;
                   COMPARE
                   /* [ int : pair string timestamp (pair mutez mutez) address address address ] */ ;
                   LT
                   /* [ bool : pair string timestamp (pair mutez mutez) address address address ] */ ;
                   IF { BALANCE
                        /* [ mutez : pair string timestamp (pair mutez mutez) address address address ] */ ;
                        DIP { DUP
                              /* [ pair string timestamp (pair mutez mutez) address address address
                                 : pair string timestamp (pair mutez mutez) address address address ] */ ;
                              CDDDAR }
                        /* [ mutez : address
                           : pair string timestamp (pair mutez mutez) address address address ] */ ;
                        DIP { CONTRACT
                                unit
                              /* [ option (contract unit)
                                 : pair string timestamp (pair mutez mutez) address address address ] */ ;
                              ASSERT_SOME }
                        /* [ mutez : contract unit
                           : pair string timestamp (pair mutez mutez) address address address ] */ ;
                        UNIT
                        /* [ unit : mutez : contract unit
                           : pair string timestamp (pair mutez mutez) address address address ] */ ;
                        TRANSFER_TOKENS
                        /* [ operation
                           : pair string timestamp (pair mutez mutez) address address address ] */ }
                      { DUP
                        /* [ pair string timestamp (pair mutez mutez) address address address
                           : pair string timestamp (pair mutez mutez) address address address ] */ ;
                        CDDAAR ;
                        DIP { DUP
                              /* [ pair string timestamp (pair mutez mutez) address address address
                                 : pair string timestamp (pair mutez mutez) address address address ] */ ;
                              CDDDAR }
                        /* [ mutez : address
                           : pair string timestamp (pair mutez mutez) address address address ] */ ;
                        DIP { CONTRACT
                                unit
                              /* [ option (contract unit)
                                 : pair string timestamp (pair mutez mutez) address address address ] */ ;
                              ASSERT_SOME }
                        /* [ mutez : contract unit
                           : pair string timestamp (pair mutez mutez) address address address ] */ ;
                        UNIT
                        /* [ unit : mutez : contract unit
                           : pair string timestamp (pair mutez mutez) address address address ] */ ;
                        TRANSFER_TOKENS
                        /* [ operation
                           : pair string timestamp (pair mutez mutez) address address address ] */ } ;
                   DIP { BALANCE
                         /* [ mutez : pair string timestamp (pair mutez mutez) address address address ] */ ;
                         DIP { DUP
                               /* [ pair string timestamp (pair mutez mutez) address address address
                                  : pair string timestamp (pair mutez mutez) address address address ] */ ;
                               CDDDDDR }
                         /* [ mutez : address
                            : pair string timestamp (pair mutez mutez) address address address ] */ ;
                         DIP { CONTRACT
                                 unit
                               /* [ option (contract unit)
                                  : pair string timestamp (pair mutez mutez) address address address ] */ ;
                               ASSERT_SOME }
                         /* [ mutez : contract unit
                            : pair string timestamp (pair mutez mutez) address address address ] */ ;
                         UNIT
                         /* [ unit : mutez : contract unit
                            : pair string timestamp (pair mutez mutez) address address address ] */ ;
                         TRANSFER_TOKENS
                         /* [ operation
                            : pair string timestamp (pair mutez mutez) address address address ] */ }
                   /* [ operation : operation
                      : pair string timestamp (pair mutez mutez) address address address ] */ ;
                   NIL operation
                   /* [ list operation : operation : operation
                      : pair string timestamp (pair mutez mutez) address address address ] */ ;
                   SWAP
                   /* [ operation : list operation : operation
                      : pair string timestamp (pair mutez mutez) address address address ] */ ;
                   CONS
                   /* [ list operation : operation
                      : pair string timestamp (pair mutez mutez) address address address ] */ ;
                   SWAP
                   /* [ operation : list operation
                      : pair string timestamp (pair mutez mutez) address address address ] */ ;
                   CONS
                   /* [ list operation
                      : pair string timestamp (pair mutez mutez) address address address ] */ ;
                   PAIR
                   /* [ pair (list operation) string timestamp (pair mutez mutez) address address address ] */ } } } }
