
./octez-client --protocol PtLimaPtLMwfNinJi9rCfDPWea8dFgTZ1MeJ9f1m2SRic6ayiwW --mode mockup --no-base-dir-warnings typecheck script tests_python/contracts_015/mini_scenarios/big_map_write.tz --details
Well typed
Gas remaining: 1039994.982 units remaining
{ storage unit ;
  parameter (big_map nat nat) ;
  code { UNPAIR
         /* [ big_map nat nat : unit ] */ ;
         PUSH (option nat) (Some 1)
         /* [ option nat : big_map nat nat : unit ] */ ;
         PUSH nat 1
         /* [ nat : option nat : big_map nat nat : unit ] */ ;
         UPDATE
         /* [ big_map nat nat : unit ] */ ;
         DROP
         /* [ unit ] */ ;
         NIL operation
         /* [ list operation : unit ] */ ;
         PAIR
         /* [ pair (list operation) unit ] */ } }
