
./octez-client --protocol PtLimaPtLMwfNinJi9rCfDPWea8dFgTZ1MeJ9f1m2SRic6ayiwW --mode mockup --no-base-dir-warnings typecheck script tests_python/contracts_015/opcodes/tez_add_sub.tz --details
Well typed
Gas remaining: 1039987.345 units remaining
{ parameter (pair mutez mutez) ;
  storage (option (pair mutez mutez)) ;
  code { CAR
         /* [ pair mutez mutez ] */ ;
         DUP
         /* [ pair mutez mutez : pair mutez mutez ] */ ;
         DUP
         /* [ pair mutez mutez : pair mutez mutez : pair mutez mutez ] */ ;
         CAR
         /* [ mutez : pair mutez mutez : pair mutez mutez ] */ ;
         DIP { CDR /* [ mutez : pair mutez mutez ] */ }
         /* [ mutez : mutez : pair mutez mutez ] */ ;
         ADD
         /* [ mutez : pair mutez mutez ] */ ;
         DIP { DUP
               /* [ pair mutez mutez : pair mutez mutez ] */ ;
               CAR
               /* [ mutez : pair mutez mutez ] */ ;
               DIP { CDR /* [ mutez ] */ }
               /* [ mutez : mutez ] */ ;
               SUB_MUTEZ
               /* [ option mutez ] */ ;
               ASSERT_SOME }
         /* [ mutez : mutez ] */ ;
         PAIR
         /* [ pair mutez mutez ] */ ;
         SOME
         /* [ option (pair mutez mutez) ] */ ;
         NIL operation
         /* [ list operation : option (pair mutez mutez) ] */ ;
         PAIR
         /* [ pair (list operation) (option (pair mutez mutez)) ] */ } }
