
./octez-client --protocol PtLimaPtLMwfNinJi9rCfDPWea8dFgTZ1MeJ9f1m2SRic6ayiwW --mode mockup --no-base-dir-warnings typecheck script tests_python/contracts_015/opcodes/pairing_check.tz --details
Well typed
Gas remaining: 1039996.509 units remaining
{ parameter (list (pair bls12_381_g1 bls12_381_g2)) ;
  storage (option bool) ;
  code { CAR
         /* [ list (pair bls12_381_g1 bls12_381_g2) ] */ ;
         PAIRING_CHECK
         /* [ bool ] */ ;
         SOME
         /* [ option bool ] */ ;
         NIL operation
         /* [ list operation : option bool ] */ ;
         PAIR
         /* [ pair (list operation) (option bool) ] */ } }
