
./octez-client --protocol PtLimaPtLMwfNinJi9rCfDPWea8dFgTZ1MeJ9f1m2SRic6ayiwW --mode mockup --no-base-dir-warnings typecheck script tests_python/contracts_015/opcodes/reverse.tz --details
Well typed
Gas remaining: 1039995.453 units remaining
{ parameter (list string) ;
  storage (list string) ;
  code { CAR
         /* [ list string ] */ ;
         NIL string
         /* [ list string : list string ] */ ;
         SWAP
         /* [ list string : list string ] */ ;
         ITER { CONS /* [ list string ] */ }
         /* [ list string ] */ ;
         NIL operation
         /* [ list operation : list string ] */ ;
         PAIR
         /* [ pair (list operation) (list string) ] */ } }
