
./octez-client --protocol PtLimaPtLMwfNinJi9rCfDPWea8dFgTZ1MeJ9f1m2SRic6ayiwW --mode mockup --no-base-dir-warnings typecheck script tests_python/contracts_015/attic/append.tz --details
Well typed
Gas remaining: 1039993.459 units remaining
{ parameter (pair (list int) (list int)) ;
  storage (list int) ;
  code { CAR
         /* [ pair (list int) (list int) ] */ ;
         UNPAIR
         /* [ list int : list int ] */ ;
         NIL int
         /* [ list int : list int : list int ] */ ;
         SWAP
         /* [ list int : list int : list int ] */ ;
         ITER { CONS /* [ list int : list int ] */ }
         /* [ list int : list int ] */ ;
         ITER { CONS /* [ list int ] */ }
         /* [ list int ] */ ;
         NIL operation
         /* [ list operation : list int ] */ ;
         PAIR
         /* [ pair (list operation) (list int) ] */ } }
