
./octez-client --protocol PtMumbaiaByZhjUPaSHEdbLZ6LUzw2YdzbGE2VX2oHSKAS4K2MD --mode mockup --no-base-dir-warnings typecheck script tests_python/contracts_016/mini_scenarios/ticket_builder_non_fungible.tz --details
Well typed
Gas remaining: 1039971.519 units remaining
{ parameter (or (ticket %burn nat) (contract %mint_destination (ticket nat))) ;
  storage (pair (address %manager) (nat %counter)) ;
  code { AMOUNT
         /* [ mutez : pair (or (ticket nat) (contract (ticket nat))) address nat ] */ ;
         PUSH mutez
              0
         /* [ mutez : mutez
            : pair (or (ticket nat) (contract (ticket nat))) address nat ] */ ;
         ASSERT_CMPEQ ;
         UNPAIR 3
         /* [ or (ticket nat) (contract (ticket nat)) : address : nat ] */ ;
         IF_LEFT
           { READ_TICKET
             /* [ pair address nat nat : ticket nat : address : nat ] */ ;
             CAR
             /* [ address : ticket nat : address : nat ] */ ;
             SELF_ADDRESS
             /* [ address : address : ticket nat : address : nat ] */ ;
             ASSERT_CMPEQ ;
             DROP
             /* [ address : nat ] */ ;
             NIL operation
             /* [ list operation : address : nat ] */ }
           { DUP @manager 2
             /* [ address : contract (ticket nat) : address : nat ] */ ;
             SENDER
             /* [ address : address : contract (ticket nat) : address : nat ] */ ;
             ASSERT_CMPEQ ;
             PUSH @amount nat 1
             /* [ nat : contract (ticket nat) : address : nat ] */ ;
             DUP @counter 4
             /* [ nat : nat : contract (ticket nat) : address : nat ] */ ;
             TICKET
             /* [ option (ticket nat) : contract (ticket nat) : address : nat ] */ ;
             ASSERT_SOME ;
             PUSH mutez 0
             /* [ mutez : ticket nat : contract (ticket nat) : address : nat ] */ ;
             SWAP
             /* [ ticket nat : mutez : contract (ticket nat) : address : nat ] */ ;
             TRANSFER_TOKENS
             /* [ operation : address : nat ] */ ;
             NIL operation
             /* [ list operation : operation : address : nat ] */ ;
             SWAP
             /* [ operation : list operation : address : nat ] */ ;
             CONS
             /* [ list operation : address : nat ] */ ;
             DIP 2
                 { PUSH nat 1 /* [ nat : nat ] */ ; ADD /* [ nat ] */ }
             /* [ list operation : address : nat ] */ } ;
         PAIR 3
         /* [ pair (list operation) address nat ] */ } }
