
./octez-client --protocol PtMumbaiaByZhjUPaSHEdbLZ6LUzw2YdzbGE2VX2oHSKAS4K2MD --mode mockup --no-base-dir-warnings typecheck script tests_python/contracts_016/opcodes/self_with_default_entrypoint.tz --details
Well typed
Gas remaining: 1039988.800 units remaining
{ parameter (or (or (nat %A) (bool %B)) (or %maybe_C (unit %default) (string %C))) ;
  storage unit ;
  code { DROP
         /* [] */ ;
         SELF
         /* [ contract unit ] */ ;
         DROP
         /* [] */ ;
         SELF %A
         /* [ contract nat ] */ ;
         DROP
         /* [] */ ;
         SELF %default
         /* [ contract unit ] */ ;
         PACK
         /* [ bytes ] */ ;
         SELF
         /* [ contract unit : bytes ] */ ;
         PACK
         /* [ bytes : bytes ] */ ;
         ASSERT_CMPEQ ;
         UNIT
         /* [ unit ] */ ;
         NIL operation
         /* [ list operation : unit ] */ ;
         PAIR
         /* [ pair (list operation) unit ] */ } }
