
./octez-client --protocol PtMumbaiaByZhjUPaSHEdbLZ6LUzw2YdzbGE2VX2oHSKAS4K2MD --mode mockup --no-base-dir-warnings typecheck script tests_python/contracts_016/opcodes/split_bytes.tz --details
Well typed
Gas remaining: 1039973.337 units remaining
{ parameter bytes ;
  storage (list bytes) ;
  code { UNPAIR
         /* [ bytes : list bytes ] */ ;
         DIP { NIL bytes
               /* [ list bytes : list bytes ] */ ;
               SWAP
               /* [ list bytes : list bytes ] */ ;
               ITER { CONS /* [ list bytes ] */ }
               /* [ list bytes ] */ }
         /* [ bytes : list bytes ] */ ;
         DUP
         /* [ bytes : bytes : list bytes ] */ ;
         SIZE
         /* [ nat : bytes : list bytes ] */ ;
         PUSH nat 0
         /* [ nat : nat : bytes : list bytes ] */ ;
         CMPNEQ ;
         DIP { PUSH @index nat 0 /* [ nat : bytes : list bytes ] */ }
         /* [ bool : nat : bytes : list bytes ] */ ;
         LOOP { PAIR
                /* [ pair nat bytes : list bytes ] */ ;
                DUP
                /* [ pair nat bytes : pair nat bytes : list bytes ] */ ;
                DIP { UNPAIR
                      /* [ nat : bytes : list bytes ] */ ;
                      DIP { PUSH nat 1 /* [ nat : bytes : list bytes ] */ }
                      /* [ nat : nat : bytes : list bytes ] */ ;
                      SLICE
                      /* [ option bytes : list bytes ] */ ;
                      ASSERT_SOME ;
                      CONS @storage
                      /* [ list bytes ] */ }
                /* [ pair nat bytes : list bytes ] */ ;
                UNPAIR
                /* [ nat : bytes : list bytes ] */ ;
                PUSH nat 1
                /* [ nat : nat : bytes : list bytes ] */ ;
                ADD @index
                /* [ nat : bytes : list bytes ] */ ;
                DUP
                /* [ nat : nat : bytes : list bytes ] */ ;
                DIP { DIP { DUP /* [ bytes : bytes : list bytes ] */ }
                      /* [ nat : bytes : bytes : list bytes ] */ ;
                      SWAP
                      /* [ bytes : nat : bytes : list bytes ] */ ;
                      SIZE
                      /* [ nat : nat : bytes : list bytes ] */ ;
                      CMPNEQ }
                /* [ nat : bool : bytes : list bytes ] */ ;
                SWAP
                /* [ bool : nat : bytes : list bytes ] */ }
         /* [ nat : bytes : list bytes ] */ ;
         DROP
         /* [ bytes : list bytes ] */ ;
         DROP
         /* [ list bytes ] */ ;
         NIL bytes
         /* [ list bytes : list bytes ] */ ;
         SWAP
         /* [ list bytes : list bytes ] */ ;
         ITER { CONS /* [ list bytes ] */ }
         /* [ list bytes ] */ ;
         NIL operation
         /* [ list operation : list bytes ] */ ;
         PAIR
         /* [ pair (list operation) (list bytes) ] */ } }
