
./octez-client --protocol PtMumbaiaByZhjUPaSHEdbLZ6LUzw2YdzbGE2VX2oHSKAS4K2MD --mode mockup --no-base-dir-warnings typecheck script tests_python/contracts_016/opcodes/store_bls12_381_g1.tz --details
Well typed
Gas remaining: 1039997.300 units remaining
{ parameter bls12_381_g1 ;
  storage (option bls12_381_g1) ;
  code { CAR
         /* [ bls12_381_g1 ] */ ;
         SOME
         /* [ option bls12_381_g1 ] */ ;
         NIL operation
         /* [ list operation : option bls12_381_g1 ] */ ;
         PAIR
         /* [ pair (list operation) (option bls12_381_g1) ] */ } }
