
./octez-client --protocol PtMumbaiaByZhjUPaSHEdbLZ6LUzw2YdzbGE2VX2oHSKAS4K2MD --mode mockup --no-base-dir-warnings typecheck script tests_python/contracts_016/mini_scenarios/execution_order_storer.tz --details
Well typed
Gas remaining: 1039996.980 units remaining
{ parameter string ;
  storage string ;
  code { UNPAIR
         /* [ string : string ] */ ;
         SWAP
         /* [ string : string ] */ ;
         CONCAT
         /* [ string ] */ ;
         NIL operation
         /* [ list operation : string ] */ ;
         PAIR
         /* [ pair (list operation) string ] */ } }
