
./octez-client --protocol PtMumbaiaByZhjUPaSHEdbLZ6LUzw2YdzbGE2VX2oHSKAS4K2MD --mode mockup --no-base-dir-warnings typecheck script tests_python/contracts_016/non_regression/bad_annot_contract.tz --details
Well typed
Gas remaining: 1039996.681 units remaining
{ parameter bytes ;
  storage (option (lambda unit unit)) ;
  code { CAR
         /* [ bytes ] */ ;
         UNPACK (lambda unit unit)
         /* [ option (lambda unit unit) ] */ ;
         NIL operation
         /* [ list operation : option (lambda unit unit) ] */ ;
         PAIR
         /* [ pair (list operation) (option (lambda unit unit)) ] */ } }
