
./octez-client --protocol PtMumbaiaByZhjUPaSHEdbLZ6LUzw2YdzbGE2VX2oHSKAS4K2MD --mode mockup --no-base-dir-warnings typecheck script tests_python/contracts_016/attic/faucet.tz --details
Well typed
Gas remaining: 1039988.070 units remaining
{ parameter key_hash ;
  storage timestamp ;
  code { UNPAIR
         /* [ key_hash : timestamp ] */ ;
         SWAP
         /* [ timestamp : key_hash ] */ ;
         PUSH int 300
         /* [ int : timestamp : key_hash ] */ ;
         ADD @FIVE_MINUTES_LATER
         /* [ timestamp : key_hash ] */ ;
         NOW
         /* [ timestamp : timestamp : key_hash ] */ ;
         ASSERT_CMPGE ;
         IMPLICIT_ACCOUNT
         /* [ contract unit ] */ ;
         PUSH mutez 1000000
         /* [ mutez : contract unit ] */ ;
         UNIT
         /* [ unit : mutez : contract unit ] */ ;
         TRANSFER_TOKENS
         /* [ operation ] */ ;
         NIL operation
         /* [ list operation : operation ] */ ;
         SWAP
         /* [ operation : list operation ] */ ;
         CONS
         /* [ list operation ] */ ;
         DIP { NOW /* [ timestamp ] */ }
         /* [ list operation : timestamp ] */ ;
         PAIR
         /* [ pair (list operation) timestamp ] */ } }
