
./octez-client --protocol PtMumbaiaByZhjUPaSHEdbLZ6LUzw2YdzbGE2VX2oHSKAS4K2MD --mode mockup --no-base-dir-warnings typecheck script tests_python/contracts_016/opcodes/pair_id.tz --details
Well typed
Gas remaining: 1039996.769 units remaining
{ parameter (pair bool bool) ;
  storage (option (pair bool bool)) ;
  code { CAR
         /* [ pair bool bool ] */ ;
         SOME
         /* [ option (pair bool bool) ] */ ;
         NIL operation
         /* [ list operation : option (pair bool bool) ] */ ;
         PAIR
         /* [ pair (list operation) (option (pair bool bool)) ] */ } }
