
./octez-client --protocol PtMumbaiaByZhjUPaSHEdbLZ6LUzw2YdzbGE2VX2oHSKAS4K2MD --mode mockup --no-base-dir-warnings typecheck script tests_python/contracts_016/opcodes/chain_id_store.tz --details
Well typed
Gas remaining: 1039996.837 units remaining
{ parameter unit ;
  storage (option chain_id) ;
  code { DROP
         /* [] */ ;
         CHAIN_ID
         /* [ chain_id ] */ ;
         SOME
         /* [ option chain_id ] */ ;
         NIL operation
         /* [ list operation : option chain_id ] */ ;
         PAIR
         /* [ pair (list operation) (option chain_id) ] */ } }
