
./octez-client --protocol PtMumbaiaByZhjUPaSHEdbLZ6LUzw2YdzbGE2VX2oHSKAS4K2MD --mode mockup --no-base-dir-warnings typecheck script tests_python/contracts_016/opcodes/set_car.tz --details
Well typed
Gas remaining: 1039992.274 units remaining
{ parameter string ;
  storage (pair (string %s) (nat %n)) ;
  code { DUP
         /* [ pair string string nat : pair string string nat ] */ ;
         CDR
         /* [ pair string nat : pair string string nat ] */ ;
         DIP { CAR /* [ string ] */ }
         /* [ pair string nat : string ] */ ;
         SET_CAR %s ;
         NIL operation
         /* [ list operation : pair string nat ] */ ;
         PAIR
         /* [ pair (list operation) string nat ] */ } }
