
./octez-client --protocol PtMumbaiaByZhjUPaSHEdbLZ6LUzw2YdzbGE2VX2oHSKAS4K2MD --mode mockup --no-base-dir-warnings typecheck script tests_python/contracts_016/opcodes/bls12_381_z_fr_int.tz --details
Well typed
Gas remaining: 1039996.980 units remaining
{ parameter int ;
  storage bls12_381_fr ;
  code { UNPAIR
         /* [ int : bls12_381_fr ] */ ;
         SWAP
         /* [ bls12_381_fr : int ] */ ;
         MUL
         /* [ bls12_381_fr ] */ ;
         NIL operation
         /* [ list operation : bls12_381_fr ] */ ;
         PAIR
         /* [ pair (list operation) bls12_381_fr ] */ } }
