
./octez-client --protocol PtMumbaiaByZhjUPaSHEdbLZ6LUzw2YdzbGE2VX2oHSKAS4K2MD --mode mockup --no-base-dir-warnings typecheck script tests_python/contracts_016/opcodes/abs.tz --details
Well typed
Gas remaining: 1039992.714 units remaining
{ parameter nat ;
  storage unit ;
  code { CAR
         /* [ nat ] */ ;
         DUP
         /* [ nat : nat ] */ ;
         NEG
         /* [ int : nat ] */ ;
         ABS
         /* [ nat : nat ] */ ;
         COMPARE
         /* [ int ] */ ;
         ASSERT_EQ ;
         UNIT
         /* [ unit ] */ ;
         NIL operation
         /* [ list operation : unit ] */ ;
         PAIR
         /* [ pair (list operation) unit ] */ } }
