
./octez-client --protocol PtMumbaiaByZhjUPaSHEdbLZ6LUzw2YdzbGE2VX2oHSKAS4K2MD --mode mockup --no-base-dir-warnings typecheck script tests_python/contracts_016/opcodes/munch.tz --details
Well typed
Gas remaining: 1039997.065 units remaining
{ parameter
    (or (bytes %bytes) (or (lambda %lambda unit unit) (or (nat %nat) (list %list_nat nat)))) ;
  storage unit ;
  code { CDR
         /* [ unit ] */ ;
         NIL operation
         /* [ list operation : unit ] */ ;
         PAIR
         /* [ pair (list operation) unit ] */ } }
