
./octez-client --protocol PtMumbaiaByZhjUPaSHEdbLZ6LUzw2YdzbGE2VX2oHSKAS4K2MD --mode mockup --no-base-dir-warnings typecheck script tests_python/contracts_016/opcodes/lsl_bytes.tz --details
Well typed
Gas remaining: 1039972.796 units remaining
{ parameter unit ;
  storage unit ;
  code { DROP
         /* [] */ ;
         PUSH nat 0
         /* [ nat ] */ ;
         PUSH bytes 0x06
         /* [ bytes : nat ] */ ;
         LSL
         /* [ bytes ] */ ;
         PUSH bytes 0x06
         /* [ bytes : bytes ] */ ;
         ASSERT_CMPEQ ;
         PUSH nat 1
         /* [ nat ] */ ;
         PUSH bytes 0x06
         /* [ bytes : nat ] */ ;
         LSL
         /* [ bytes ] */ ;
         PUSH bytes 0x000c
         /* [ bytes : bytes ] */ ;
         ASSERT_CMPEQ ;
         PUSH nat 8
         /* [ nat ] */ ;
         PUSH bytes 0x06
         /* [ bytes : nat ] */ ;
         LSL
         /* [ bytes ] */ ;
         PUSH bytes 0x0600
         /* [ bytes : bytes ] */ ;
         ASSERT_CMPEQ ;
         PUSH nat 1
         /* [ nat ] */ ;
         PUSH bytes 0x0006
         /* [ bytes : nat ] */ ;
         LSL
         /* [ bytes ] */ ;
         PUSH bytes 0x00000c
         /* [ bytes : bytes ] */ ;
         ASSERT_CMPEQ ;
         UNIT
         /* [ unit ] */ ;
         NIL @noop operation
         /* [ list operation : unit ] */ ;
         PAIR
         /* [ pair (list operation) unit ] */ } }
