
./octez-client --protocol PtMumbaiaByZhjUPaSHEdbLZ6LUzw2YdzbGE2VX2oHSKAS4K2MD --mode mockup --no-base-dir-warnings typecheck script tests_python/contracts_016/opcodes/view_op_add.tz --details
Well typed
Gas remaining: 1039994.410 units remaining
{ parameter (pair nat address) ;
  storage nat ;
  code { CAR
         /* [ pair nat address ] */ ;
         UNPAIR
         /* [ nat : address ] */ ;
         VIEW "add" nat
         /* [ option nat ] */ ;
         IF_SOME { /* [ nat ] */ } { FAIL } ;
         NIL operation
         /* [ list operation : nat ] */ ;
         PAIR
         /* [ pair (list operation) nat ] */ } }
