
./octez-client --protocol PtMumbaiaByZhjUPaSHEdbLZ6LUzw2YdzbGE2VX2oHSKAS4K2MD --mode mockup --no-base-dir-warnings typecheck script tests_python/contracts_016/macros/assert_lt.tz --details
Well typed
Gas remaining: 1039991.843 units remaining
{ parameter (pair int int) ;
  storage unit ;
  code { CAR
         /* [ pair int int ] */ ;
         DUP
         /* [ pair int int : pair int int ] */ ;
         CAR
         /* [ int : pair int int ] */ ;
         DIP { CDR /* [ int ] */ }
         /* [ int : int ] */ ;
         COMPARE
         /* [ int ] */ ;
         ASSERT_LT ;
         UNIT
         /* [ unit ] */ ;
         NIL operation
         /* [ list operation : unit ] */ ;
         PAIR
         /* [ pair (list operation) unit ] */ } }
