
./octez-client --protocol PtMumbaiaByZhjUPaSHEdbLZ6LUzw2YdzbGE2VX2oHSKAS4K2MD --mode mockup --no-base-dir-warnings typecheck script tests_python/contracts_016/attic/cons_twice.tz --details
Well typed
Gas remaining: 1039993.758 units remaining
{ parameter nat ;
  storage (list nat) ;
  code { DUP
         /* [ pair nat (list nat) : pair nat (list nat) ] */ ;
         CAR
         /* [ nat : pair nat (list nat) ] */ ;
         DIP { CDR /* [ list nat ] */ }
         /* [ nat : list nat ] */ ;
         DUP
         /* [ nat : nat : list nat ] */ ;
         DIP { CONS /* [ list nat ] */ }
         /* [ nat : list nat ] */ ;
         CONS
         /* [ list nat ] */ ;
         NIL operation
         /* [ list operation : list nat ] */ ;
         PAIR
         /* [ pair (list operation) (list nat) ] */ } }
