
./octez-client --protocol PtMumbaiaByZhjUPaSHEdbLZ6LUzw2YdzbGE2VX2oHSKAS4K2MD --mode mockup --no-base-dir-warnings typecheck script tests_python/contracts_016/opcodes/self.tz --details
Well typed
Gas remaining: 1039996.945 units remaining
{ parameter unit ;
  storage address ;
  code { DROP
         /* [] */ ;
         SELF
         /* [ contract unit ] */ ;
         ADDRESS
         /* [ address ] */ ;
         NIL operation
         /* [ list operation : address ] */ ;
         PAIR
         /* [ pair (list operation) address ] */ } }
