
./octez-client --protocol PtMumbaiaByZhjUPaSHEdbLZ6LUzw2YdzbGE2VX2oHSKAS4K2MD --mode mockup --no-base-dir-warnings run script ./tests_python/contracts_016/opcodes/map_id.tz on storage '{}' and input '{ Elt 0 0 ; Elt 3 4 }' --level 1 --trace-stack
storage
  { Elt 0 0 ; Elt 3 4 }
emitted operations
  
big_map diff
  
trace
  - location: 11 (just consumed gas: 5.031)
    [ (Pair { Elt 0 0 ; Elt 3 4 } {}) ]
  - location: 11 (just consumed gas: 0.010)
    [ { Elt 0 0 ; Elt 3 4 } ]
  - location: 12 (just consumed gas: 0.010)
    [ {}
      { Elt 0 0 ; Elt 3 4 } ]
  - location: 14 (just consumed gas: 0.010)
    [ (Pair {} { Elt 0 0 ; Elt 3 4 }) ]

