
./octez-client --protocol PtMumbaiaByZhjUPaSHEdbLZ6LUzw2YdzbGE2VX2oHSKAS4K2MD --mode mockup --no-base-dir-warnings run script ./tests_python/contracts_016/opcodes/shifts.tz on storage None and input '(Left (Pair 1 2))' --level 1 --trace-stack
storage
  (Some 4)
emitted operations
  
big_map diff
  
trace
  - location: 14 (just consumed gas: 8.811)
    [ (Pair (Left (Pair 1 2)) None) ]
  - location: 14 (just consumed gas: 0.010)
    [ (Left (Pair 1 2)) ]
  - location: 15 (just consumed gas: 0)
    [ (Pair 1 2) ]
  - location: 17 (just consumed gas: 0.010)
    [ 1
      2 ]
  - location: 18 (just consumed gas: 0)
    [ 4 ]
  - location: 15 (just consumed gas: 0.015)
    [ 4 ]
  - location: 22 (just consumed gas: 0.010)
    [ (Some 4) ]
  - location: 23 (just consumed gas: 0.010)
    [ {}
      (Some 4) ]
  - location: 25 (just consumed gas: 0.010)
    [ (Pair {} (Some 4)) ]

