
./octez-client --protocol PtMumbaiaByZhjUPaSHEdbLZ6LUzw2YdzbGE2VX2oHSKAS4K2MD --mode mockup --no-base-dir-warnings run script ./tests_python/contracts_016/opcodes/ediv.tz on storage '(Pair None None None None)' and input '(Pair -8 2)' --level 1 --trace-stack
storage
  (Pair (Some (Pair -4 0)) (Some (Pair -4 0)) (Some (Pair 4 0)) (Some (Pair 4 0)))
emitted operations
  
big_map diff
  
trace
  - location: 25 (just consumed gas: 25.562)
    [ (Pair (Pair -8 2) None None None None) ]
  - location: 25 (just consumed gas: 0.010)
    [ (Pair -8 2) ]
  - location: 26 (just consumed gas: 0.010)
    [ (Pair -8 2)
      (Pair -8 2) ]
  - location: 27 (just consumed gas: 0.010)
    [ -8
      2
      (Pair -8 2) ]
  - location: 28 (just consumed gas: 0.020)
    [ 8
      2
      (Pair -8 2) ]
  - location: 29 (just consumed gas: 0)
    [ 2
      (Pair -8 2) ]
  - location: 31 (just consumed gas: 0.020)
    [ 2
      (Pair -8 2) ]
  - location: 29 (just consumed gas: 0.025)
    [ 8
      2
      (Pair -8 2) ]
  - location: 32 (just consumed gas: 0.105)
    [ (Some (Pair 4 0))
      (Pair -8 2) ]
  - location: 33 (just consumed gas: 0.010)
    [ (Pair -8 2)
      (Some (Pair 4 0)) ]
  - location: 34 (just consumed gas: 0.010)
    [ (Pair -8 2)
      (Pair -8 2)
      (Some (Pair 4 0)) ]
  - location: 35 (just consumed gas: 0.010)
    [ -8
      2
      (Pair -8 2)
      (Some (Pair 4 0)) ]
  - location: 36 (just consumed gas: 0.020)
    [ 8
      2
      (Pair -8 2)
      (Some (Pair 4 0)) ]
  - location: 37 (just consumed gas: 0.105)
    [ (Some (Pair 4 0))
      (Pair -8 2)
      (Some (Pair 4 0)) ]
  - location: 38 (just consumed gas: 0.010)
    [ (Pair -8 2)
      (Some (Pair 4 0))
      (Some (Pair 4 0)) ]
  - location: 39 (just consumed gas: 0.010)
    [ (Pair -8 2)
      (Pair -8 2)
      (Some (Pair 4 0))
      (Some (Pair 4 0)) ]
  - location: 40 (just consumed gas: 0.010)
    [ -8
      2
      (Pair -8 2)
      (Some (Pair 4 0))
      (Some (Pair 4 0)) ]
  - location: 41 (just consumed gas: 0)
    [ 2
      (Pair -8 2)
      (Some (Pair 4 0))
      (Some (Pair 4 0)) ]
  - location: 43 (just consumed gas: 0.020)
    [ 2
      (Pair -8 2)
      (Some (Pair 4 0))
      (Some (Pair 4 0)) ]
  - location: 41 (just consumed gas: 0.025)
    [ -8
      2
      (Pair -8 2)
      (Some (Pair 4 0))
      (Some (Pair 4 0)) ]
  - location: 44 (just consumed gas: 0.105)
    [ (Some (Pair -4 0))
      (Pair -8 2)
      (Some (Pair 4 0))
      (Some (Pair 4 0)) ]
  - location: 45 (just consumed gas: 0.010)
    [ (Pair -8 2)
      (Some (Pair -4 0))
      (Some (Pair 4 0))
      (Some (Pair 4 0)) ]
  - location: 46 (just consumed gas: 0.010)
    [ -8
      2
      (Some (Pair -4 0))
      (Some (Pair 4 0))
      (Some (Pair 4 0)) ]
  - location: 47 (just consumed gas: 0.105)
    [ (Some (Pair -4 0))
      (Some (Pair -4 0))
      (Some (Pair 4 0))
      (Some (Pair 4 0)) ]
  - location: 49 (just consumed gas: 0)
    [ (Some (Pair 4 0))
      (Some (Pair 4 0)) ]
  - location: 52 (just consumed gas: 0.010)
    [ (Pair (Some (Pair 4 0)) (Some (Pair 4 0))) ]
  - location: 49 (just consumed gas: 0.025)
    [ (Some (Pair -4 0))
      (Pair (Some (Pair 4 0)) (Some (Pair 4 0))) ]
  - location: 49 (just consumed gas: 0.010)
    [ (Some (Pair -4 0))
      (Some (Pair -4 0))
      (Pair (Some (Pair 4 0)) (Some (Pair 4 0))) ]
  - location: 49 (just consumed gas: 0)
    [ (Some (Pair -4 0))
      (Some (Pair -4 0))
      (Pair (Some (Pair 4 0)) (Some (Pair 4 0))) ]
  - location: 53 (just consumed gas: 0)
    [ (Some (Pair -4 0))
      (Pair (Some (Pair 4 0)) (Some (Pair 4 0))) ]
  - location: 55 (just consumed gas: 0.010)
    [ (Pair (Some (Pair -4 0)) (Some (Pair 4 0)) (Some (Pair 4 0))) ]
  - location: 53 (just consumed gas: 0.025)
    [ (Some (Pair -4 0))
      (Pair (Some (Pair -4 0)) (Some (Pair 4 0)) (Some (Pair 4 0))) ]
  - location: 56 (just consumed gas: 0.010)
    [ (Pair (Some (Pair -4 0)) (Some (Pair -4 0)) (Some (Pair 4 0)) (Some (Pair 4 0))) ]
  - location: 57 (just consumed gas: 0.010)
    [ {}
      (Pair (Some (Pair -4 0)) (Some (Pair -4 0)) (Some (Pair 4 0)) (Some (Pair 4 0))) ]
  - location: 59 (just consumed gas: 0.010)
    [ (Pair {} (Some (Pair -4 0)) (Some (Pair -4 0)) (Some (Pair 4 0)) (Some (Pair 4 0))) ]

