
./octez-client --protocol PtMumbaiaByZhjUPaSHEdbLZ6LUzw2YdzbGE2VX2oHSKAS4K2MD --mode mockup --no-base-dir-warnings run script ./tests_python/contracts_016/opcodes/or_binary.tz on storage None and input '(Pair 4 8)' --level 1 --trace-stack
storage
  (Some 12)
emitted operations
  
big_map diff
  
trace
  - location: 10 (just consumed gas: 6.141)
    [ (Pair (Pair 4 8) None) ]
  - location: 10 (just consumed gas: 0.010)
    [ (Pair 4 8) ]
  - location: 11 (just consumed gas: 0.010)
    [ 4
      8 ]
  - location: 12 (just consumed gas: 0.035)
    [ 12 ]
  - location: 13 (just consumed gas: 0.010)
    [ (Some 12) ]
  - location: 14 (just consumed gas: 0.010)
    [ {}
      (Some 12) ]
  - location: 16 (just consumed gas: 0.010)
    [ (Pair {} (Some 12)) ]

