
./octez-client --protocol PtMumbaiaByZhjUPaSHEdbLZ6LUzw2YdzbGE2VX2oHSKAS4K2MD --mode mockup --no-base-dir-warnings run script ./tests_python/contracts_016/opcodes/ediv_mutez.tz on storage '(Left None)' and input '(Pair 10 (Left 0))' --level 1 --trace-stack
storage
  (Left None)
emitted operations
  
big_map diff
  
trace
  - location: 19 (just consumed gas: 14.009)
    [ (Pair (Pair 10 (Left 0)) (Left None)) ]
  - location: 19 (just consumed gas: 0.010)
    [ (Pair 10 (Left 0)) ]
  - location: 20 (just consumed gas: 0.010)
    [ 10
      (Left 0) ]
  - location: 21 (just consumed gas: 0.010)
    [ (Left 0)
      10 ]
  - location: 22 (just consumed gas: 0)
    [ 0
      10 ]
  - location: 24 (just consumed gas: 0.010)
    [ 10
      0 ]
  - location: 25 (just consumed gas: 0.080)
    [ None ]
  - location: 26 (just consumed gas: 0.010)
    [ (Left None) ]
  - location: 22 (just consumed gas: 0.015)
    [ (Left None) ]
  - location: 39 (just consumed gas: 0.010)
    [ {}
      (Left None) ]
  - location: 41 (just consumed gas: 0.010)
    [ (Pair {} (Left None)) ]

