
./octez-client --protocol PtMumbaiaByZhjUPaSHEdbLZ6LUzw2YdzbGE2VX2oHSKAS4K2MD --mode mockup --no-base-dir-warnings run script ./tests_python/contracts_016/opcodes/hash_string.tz on storage 0x00 and input '"12345"' --level 1 --trace-stack
storage
  0xb4c26c20de52a4eaf0d8a340db47ad8cb1e74049570859c9a9a3952b204c772f
emitted operations
  
big_map diff
  
trace
  - location: 7 (just consumed gas: 4.929)
    [ (Pair "12345" 0x00) ]
  - location: 7 (just consumed gas: 0.010)
    [ "12345" ]
  - location: 8 (just consumed gas: 0.266)
    [ 0x0501000000053132333435 ]
  - location: 9 (just consumed gas: 0.442)
    [ 0xb4c26c20de52a4eaf0d8a340db47ad8cb1e74049570859c9a9a3952b204c772f ]
  - location: 10 (just consumed gas: 0.010)
    [ {}
      0xb4c26c20de52a4eaf0d8a340db47ad8cb1e74049570859c9a9a3952b204c772f ]
  - location: 12 (just consumed gas: 0.010)
    [ (Pair {} 0xb4c26c20de52a4eaf0d8a340db47ad8cb1e74049570859c9a9a3952b204c772f) ]

