
./octez-client --protocol PtMumbaiaByZhjUPaSHEdbLZ6LUzw2YdzbGE2VX2oHSKAS4K2MD --mode mockup --no-base-dir-warnings run script ./tests_python/contracts_016/opcodes/chain_id_store.tz on storage '(Some "NetXynUjJNZm7wi")' and input Unit --level 1 --trace-stack
storage
  (Some "NetXynUjJNZm7wi")
emitted operations
  
big_map diff
  
trace
  - location: 8 (just consumed gas: 6.753)
    [ (Pair Unit (Some "NetXynUjJNZm7wi")) ]
  - location: 8 (just consumed gas: 0.010)
    [  ]
  - location: 9 (just consumed gas: 0.015)
    [ "NetXynUjJNZm7wi" ]
  - location: 10 (just consumed gas: 0.010)
    [ (Some "NetXynUjJNZm7wi") ]
  - location: 11 (just consumed gas: 0.010)
    [ {}
      (Some "NetXynUjJNZm7wi") ]
  - location: 13 (just consumed gas: 0.010)
    [ (Pair {} (Some "NetXynUjJNZm7wi")) ]

