
./octez-client --protocol PtMumbaiaByZhjUPaSHEdbLZ6LUzw2YdzbGE2VX2oHSKAS4K2MD --mode mockup --no-base-dir-warnings run script ./tests_python/contracts_016/opcodes/big_map_mem_string.tz on storage '(Pair { Elt "bar" 4 ; Elt "foo" 11 } None)' and input '"bar"' --level 1 --trace-stack
storage
  (Pair 4 (Some True))
emitted operations
  
big_map diff
  New map(4) of type (big_map string nat)
  Set map(4)["bar"] to 4
  Set map(4)["foo"] to 11
trace
  - location: 12 (just consumed gas: 11.994)
    [ (Pair "bar" { Elt "bar" 4 ; Elt "foo" 11 } None) ]
  - location: 12 (just consumed gas: 0.010)
    [ "bar"
      (Pair { Elt "bar" 4 ; Elt "foo" 11 } None) ]
  - location: 13 (just consumed gas: 0)
    [ (Pair { Elt "bar" 4 ; Elt "foo" 11 } None) ]
  - location: 15 (just consumed gas: 0.010)
    [ { Elt "bar" 4 ; Elt "foo" 11 } ]
  - location: 16 (just consumed gas: 0.010)
    [ { Elt "bar" 4 ; Elt "foo" 11 }
      { Elt "bar" 4 ; Elt "foo" 11 } ]
  - location: 13 (just consumed gas: 0.025)
    [ "bar"
      { Elt "bar" 4 ; Elt "foo" 11 }
      { Elt "bar" 4 ; Elt "foo" 11 } ]
  - location: 17 (just consumed gas: 0.735)
    [ True
      { Elt "bar" 4 ; Elt "foo" 11 } ]
  - location: 18 (just consumed gas: 0.010)
    [ (Some True)
      { Elt "bar" 4 ; Elt "foo" 11 } ]
  - location: 19 (just consumed gas: 0.010)
    [ { Elt "bar" 4 ; Elt "foo" 11 }
      (Some True) ]
  - location: 20 (just consumed gas: 0.010)
    [ (Pair { Elt "bar" 4 ; Elt "foo" 11 } (Some True)) ]
  - location: 21 (just consumed gas: 0.010)
    [ {}
      (Pair { Elt "bar" 4 ; Elt "foo" 11 } (Some True)) ]
  - location: 23 (just consumed gas: 0.010)
    [ (Pair {} { Elt "bar" 4 ; Elt "foo" 11 } (Some True)) ]

