
./octez-client --protocol PtMumbaiaByZhjUPaSHEdbLZ6LUzw2YdzbGE2VX2oHSKAS4K2MD --mode mockup --no-base-dir-warnings run script ./tests_python/contracts_016/opcodes/big_map_mem_string.tz on storage '(Pair { Elt "foo" 0 } None)' and input '"foo"' --level 1 --trace-stack
storage
  (Pair 4 (Some True))
emitted operations
  
big_map diff
  New map(4) of type (big_map string nat)
  Set map(4)["foo"] to 0
trace
  - location: 12 (just consumed gas: 10.968)
    [ (Pair "foo" { Elt "foo" 0 } None) ]
  - location: 12 (just consumed gas: 0.010)
    [ "foo"
      (Pair { Elt "foo" 0 } None) ]
  - location: 13 (just consumed gas: 0)
    [ (Pair { Elt "foo" 0 } None) ]
  - location: 15 (just consumed gas: 0.010)
    [ { Elt "foo" 0 } ]
  - location: 16 (just consumed gas: 0.010)
    [ { Elt "foo" 0 }
      { Elt "foo" 0 } ]
  - location: 13 (just consumed gas: 0.025)
    [ "foo"
      { Elt "foo" 0 }
      { Elt "foo" 0 } ]
  - location: 17 (just consumed gas: 0.734)
    [ True
      { Elt "foo" 0 } ]
  - location: 18 (just consumed gas: 0.010)
    [ (Some True)
      { Elt "foo" 0 } ]
  - location: 19 (just consumed gas: 0.010)
    [ { Elt "foo" 0 }
      (Some True) ]
  - location: 20 (just consumed gas: 0.010)
    [ (Pair { Elt "foo" 0 } (Some True)) ]
  - location: 21 (just consumed gas: 0.010)
    [ {}
      (Pair { Elt "foo" 0 } (Some True)) ]
  - location: 23 (just consumed gas: 0.010)
    [ (Pair {} { Elt "foo" 0 } (Some True)) ]

