
./octez-client --protocol PtMumbaiaByZhjUPaSHEdbLZ6LUzw2YdzbGE2VX2oHSKAS4K2MD --mode mockup --no-base-dir-warnings run script ./tests_python/contracts_016/opcodes/neg.tz on storage 0 and input '(Left -2)' --level 1 --trace-stack
storage
  2
emitted operations
  
big_map diff
  
trace
  - location: 9 (just consumed gas: 6.169)
    [ (Pair (Left -2) 0) ]
  - location: 9 (just consumed gas: 0.010)
    [ (Left -2) ]
  - location: 10 (just consumed gas: 0)
    [ -2 ]
  - location: 12 (just consumed gas: 0.025)
    [ 2 ]
  - location: 10 (just consumed gas: 0.015)
    [ 2 ]
  - location: 15 (just consumed gas: 0.010)
    [ {}
      2 ]
  - location: 17 (just consumed gas: 0.010)
    [ (Pair {} 2) ]

