
./octez-client --protocol PtMumbaiaByZhjUPaSHEdbLZ6LUzw2YdzbGE2VX2oHSKAS4K2MD --mode mockup --no-base-dir-warnings run script ./tests_python/contracts_016/opcodes/pair_id.tz on storage None and input '(Pair True False)' --level 1 --trace-stack
storage
  (Some (Pair True False))
emitted operations
  
big_map diff
  
trace
  - location: 12 (just consumed gas: 5.501)
    [ (Pair (Pair True False) None) ]
  - location: 12 (just consumed gas: 0.010)
    [ (Pair True False) ]
  - location: 13 (just consumed gas: 0.010)
    [ (Some (Pair True False)) ]
  - location: 14 (just consumed gas: 0.010)
    [ {}
      (Some (Pair True False)) ]
  - location: 16 (just consumed gas: 0.010)
    [ (Pair {} (Some (Pair True False))) ]

