
./octez-client --protocol PtMumbaiaByZhjUPaSHEdbLZ6LUzw2YdzbGE2VX2oHSKAS4K2MD --mode mockup --no-base-dir-warnings run script ./tests_python/contracts_016/opcodes/bls12_381_fr_z_int.tz on storage 0x0100000000000000000000000000000000000000000000000000000000000000 and input -1 --level 1 --trace-stack
storage
  0x00000000fffffffffe5bfeff02a4bd5305d8a10908d83933487d9d2953a7ed73
emitted operations
  
big_map diff
  
trace
  - location: 7 (just consumed gas: 4.387)
    [ (Pair -1 0x0100000000000000000000000000000000000000000000000000000000000000) ]
  - location: 7 (just consumed gas: 0.010)
    [ -1
      0x0100000000000000000000000000000000000000000000000000000000000000 ]
  - location: 8 (just consumed gas: 0.266)
    [ 0x00000000fffffffffe5bfeff02a4bd5305d8a10908d83933487d9d2953a7ed73 ]
  - location: 9 (just consumed gas: 0.010)
    [ {}
      0x00000000fffffffffe5bfeff02a4bd5305d8a10908d83933487d9d2953a7ed73 ]
  - location: 11 (just consumed gas: 0.010)
    [ (Pair {} 0x00000000fffffffffe5bfeff02a4bd5305d8a10908d83933487d9d2953a7ed73) ]

