
./octez-client --protocol PtMumbaiaByZhjUPaSHEdbLZ6LUzw2YdzbGE2VX2oHSKAS4K2MD --mode mockup --no-base-dir-warnings run script ./tests_python/contracts_016/opcodes/comb.tz on storage '(Pair 0 0 0)' and input Unit --level 1 --trace-stack
storage
  (Pair 1 2 3)
emitted operations
  
big_map diff
  
trace
  - location: 10 (just consumed gas: 8.221)
    [ (Pair Unit 0 0 0) ]
  - location: 10 (just consumed gas: 0.010)
    [  ]
  - location: 11 (just consumed gas: 0.010)
    [ 3 ]
  - location: 14 (just consumed gas: 0.010)
    [ 2
      3 ]
  - location: 17 (just consumed gas: 0.010)
    [ 1
      2
      3 ]
  - location: 20 (just consumed gas: 0.010)
    [ {}
      1
      2
      3 ]
  - location: 22 (just consumed gas: 0.014)
    [ (Pair {} 1 2 3) ]

