
./octez-client --protocol PtMumbaiaByZhjUPaSHEdbLZ6LUzw2YdzbGE2VX2oHSKAS4K2MD --mode mockup --no-base-dir-warnings run script ./tests_python/contracts_016/opcodes/map_map.tz on storage '{ Elt "foo" 1 }' and input 10 --level 1 --trace-stack
storage
  { Elt "foo" 11 }
emitted operations
  
big_map diff
  
trace
  - location: 9 (just consumed gas: 9.546)
    [ (Pair 10 { Elt "foo" 1 }) ]
  - location: 9 (just consumed gas: 0.010)
    [ 10
      { Elt "foo" 1 } ]
  - location: 10 (just consumed gas: 0.010)
    [ { Elt "foo" 1 }
      10 ]
  - location: 11 (just consumed gas: 0)
    [ (Pair "foo" 1)
      10 ]
  - location: 13 (just consumed gas: 0.010)
    [ 1
      10 ]
  - location: 14 (just consumed gas: 0)
    [ 10 ]
  - location: 16 (just consumed gas: 0.010)
    [ 10
      10 ]
  - location: 14 (just consumed gas: 0.025)
    [ 1
      10
      10 ]
  - location: 17 (just consumed gas: 0.035)
    [ 11
      10 ]
  - location: 11 (just consumed gas: 0.015)
    [ { Elt "foo" 11 }
      10 ]
  - location: 18 (just consumed gas: 0)
    [ 10 ]
  - location: 20 (just consumed gas: 0.010)
    [  ]
  - location: 18 (just consumed gas: 0.025)
    [ { Elt "foo" 11 } ]
  - location: 21 (just consumed gas: 0.010)
    [ {}
      { Elt "foo" 11 } ]
  - location: 23 (just consumed gas: 0.010)
    [ (Pair {} { Elt "foo" 11 }) ]

