
./octez-client --protocol PtMumbaiaByZhjUPaSHEdbLZ6LUzw2YdzbGE2VX2oHSKAS4K2MD --mode mockup --no-base-dir-warnings run script ./tests_python/contracts_016/opcodes/bls12_381_fr_to_int.tz on storage 0 and input 0x28db8e57af88d9576acd181b89f24e50a89a6423f939026ed91349fc9af16c27 --level 1 --trace-stack
storage
  17832688077013577776524784494464728518213913213412866604053735695200962927400
emitted operations
  
big_map diff
  
trace
  - location: 7 (just consumed gas: 4.387)
    [ (Pair 0x28db8e57af88d9576acd181b89f24e50a89a6423f939026ed91349fc9af16c27 0) ]
  - location: 7 (just consumed gas: 0.010)
    [ 0x28db8e57af88d9576acd181b89f24e50a89a6423f939026ed91349fc9af16c27 ]
  - location: 8 (just consumed gas: 0.115)
    [ 17832688077013577776524784494464728518213913213412866604053735695200962927400 ]
  - location: 9 (just consumed gas: 0.010)
    [ {}
      17832688077013577776524784494464728518213913213412866604053735695200962927400 ]
  - location: 11 (just consumed gas: 0.010)
    [ (Pair {}
            17832688077013577776524784494464728518213913213412866604053735695200962927400) ]

