
./octez-client --protocol PtMumbaiaByZhjUPaSHEdbLZ6LUzw2YdzbGE2VX2oHSKAS4K2MD --mode mockup --no-base-dir-warnings run script ./tests_python/contracts_016/opcodes/or_binary.tz on storage None and input '(Pair 0 8)' --level 1 --trace-stack
storage
  (Some 8)
emitted operations
  
big_map diff
  
trace
  - location: 10 (just consumed gas: 6.141)
    [ (Pair (Pair 0 8) None) ]
  - location: 10 (just consumed gas: 0.010)
    [ (Pair 0 8) ]
  - location: 11 (just consumed gas: 0.010)
    [ 0
      8 ]
  - location: 12 (just consumed gas: 0.035)
    [ 8 ]
  - location: 13 (just consumed gas: 0.010)
    [ (Some 8) ]
  - location: 14 (just consumed gas: 0.010)
    [ {}
      (Some 8) ]
  - location: 16 (just consumed gas: 0.010)
    [ (Pair {} (Some 8)) ]

