
./octez-client --protocol PtMumbaiaByZhjUPaSHEdbLZ6LUzw2YdzbGE2VX2oHSKAS4K2MD --mode mockup --no-base-dir-warnings run script ./tests_python/contracts_016/opcodes/or.tz on storage None and input '(Pair False False)' --level 1 --trace-stack
storage
  (Some False)
emitted operations
  
big_map diff
  
trace
  - location: 10 (just consumed gas: 8.115)
    [ (Pair (Pair False False) None) ]
  - location: 10 (just consumed gas: 0.010)
    [ (Pair False False) ]
  - location: 11 (just consumed gas: 0.010)
    [ (Pair False False)
      (Pair False False) ]
  - location: 12 (just consumed gas: 0.010)
    [ False
      (Pair False False) ]
  - location: 13 (just consumed gas: 0.010)
    [ (Pair False False)
      False ]
  - location: 14 (just consumed gas: 0.010)
    [ False
      False ]
  - location: 15 (just consumed gas: 0.010)
    [ False ]
  - location: 16 (just consumed gas: 0.010)
    [ (Some False) ]
  - location: 17 (just consumed gas: 0.010)
    [ {}
      (Some False) ]
  - location: 19 (just consumed gas: 0.010)
    [ (Pair {} (Some False)) ]

