
./octez-client --protocol PtMumbaiaByZhjUPaSHEdbLZ6LUzw2YdzbGE2VX2oHSKAS4K2MD --mode mockup --no-base-dir-warnings run script ./tests_python/contracts_016/opcodes/set_id.tz on storage '{}' and input '{ "a" ; "b" ; "c" }' --level 1 --trace-stack
storage
  { "a" ; "b" ; "c" }
emitted operations
  
big_map diff
  
trace
  - location: 9 (just consumed gas: 4.919)
    [ (Pair { "a" ; "b" ; "c" } {}) ]
  - location: 9 (just consumed gas: 0.010)
    [ { "a" ; "b" ; "c" } ]
  - location: 10 (just consumed gas: 0.010)
    [ {}
      { "a" ; "b" ; "c" } ]
  - location: 12 (just consumed gas: 0.010)
    [ (Pair {} { "a" ; "b" ; "c" }) ]

