
./octez-client --protocol PtMumbaiaByZhjUPaSHEdbLZ6LUzw2YdzbGE2VX2oHSKAS4K2MD --mode mockup --no-base-dir-warnings run script ./tests_python/contracts_016/opcodes/keccak.tz on storage None and input 0x48656c6c6f2c20776f726c6421 --level 1 --trace-stack
storage
  (Some 0xb6e16d27ac5ab427a7f68900ac5559ce272dc6c37c82b3e052246c82244c50e4)
emitted operations
  
big_map diff
  
trace
  - location: 8 (just consumed gas: 5.053)
    [ (Pair 0x48656c6c6f2c20776f726c6421 None) ]
  - location: 8 (just consumed gas: 0.010)
    [ 0x48656c6c6f2c20776f726c6421 ]
  - location: 9 (just consumed gas: 1.457)
    [ 0xb6e16d27ac5ab427a7f68900ac5559ce272dc6c37c82b3e052246c82244c50e4 ]
  - location: 10 (just consumed gas: 0.010)
    [ (Some 0xb6e16d27ac5ab427a7f68900ac5559ce272dc6c37c82b3e052246c82244c50e4) ]
  - location: 11 (just consumed gas: 0.010)
    [ {}
      (Some 0xb6e16d27ac5ab427a7f68900ac5559ce272dc6c37c82b3e052246c82244c50e4) ]
  - location: 13 (just consumed gas: 0.010)
    [ (Pair {}
            (Some 0xb6e16d27ac5ab427a7f68900ac5559ce272dc6c37c82b3e052246c82244c50e4)) ]

