
./octez-client --protocol PtMumbaiaByZhjUPaSHEdbLZ6LUzw2YdzbGE2VX2oHSKAS4K2MD --mode mockup --no-base-dir-warnings run script ./tests_python/contracts_016/opcodes/map_mem_string.tz on storage '(Pair { Elt "foo" 1 } None)' and input '"bar"' --level 1 --trace-stack
storage
  (Pair { Elt "foo" 1 } (Some False))
emitted operations
  
big_map diff
  
trace
  - location: 12 (just consumed gas: 9.810)
    [ (Pair "bar" { Elt "foo" 1 } None) ]
  - location: 12 (just consumed gas: 0.010)
    [ "bar"
      (Pair { Elt "foo" 1 } None) ]
  - location: 13 (just consumed gas: 0)
    [ (Pair { Elt "foo" 1 } None) ]
  - location: 15 (just consumed gas: 0.010)
    [ { Elt "foo" 1 } ]
  - location: 16 (just consumed gas: 0.010)
    [ { Elt "foo" 1 }
      { Elt "foo" 1 } ]
  - location: 13 (just consumed gas: 0.025)
    [ "bar"
      { Elt "foo" 1 }
      { Elt "foo" 1 } ]
  - location: 17 (just consumed gas: 0.086)
    [ False
      { Elt "foo" 1 } ]
  - location: 18 (just consumed gas: 0.010)
    [ (Some False)
      { Elt "foo" 1 } ]
  - location: 19 (just consumed gas: 0.010)
    [ { Elt "foo" 1 }
      (Some False) ]
  - location: 20 (just consumed gas: 0.010)
    [ (Pair { Elt "foo" 1 } (Some False)) ]
  - location: 21 (just consumed gas: 0.010)
    [ {}
      (Pair { Elt "foo" 1 } (Some False)) ]
  - location: 23 (just consumed gas: 0.010)
    [ (Pair {} { Elt "foo" 1 } (Some False)) ]

