
./octez-client --protocol PtMumbaiaByZhjUPaSHEdbLZ6LUzw2YdzbGE2VX2oHSKAS4K2MD --mode mockup --no-base-dir-warnings run script ./tests_python/contracts_016/opcodes/mul.tz on storage Unit and input Unit --level 1 --trace-stack
storage
  Unit
emitted operations
  
big_map diff
  
trace
  - location: 7 (just consumed gas: 50.799)
    [ (Pair Unit Unit) ]
  - location: 7 (just consumed gas: 0.010)
    [ Unit ]
  - location: 8 (just consumed gas: 0.010)
    [  ]
  - location: 9 (just consumed gas: 0.010)
    [ 7987 ]
  - location: 12 (just consumed gas: 0.010)
    [ 10
      7987 ]
  - location: 15 (just consumed gas: 0)
    [ 79870 ]
  - location: 16 (just consumed gas: 0.010)
    [ 79870
      79870 ]
  - location: 19 (just consumed gas: 0.035)
    [ 0 ]
  - location: 21 (just consumed gas: 0.010)
    [ True ]
  - location: 22 (just consumed gas: 0)
    [  ]
  - location: 22 (just consumed gas: 0.015)
    [  ]
  - location: 28 (just consumed gas: 0.010)
    [ 10 ]
  - location: 31 (just consumed gas: 0.010)
    [ 7987
      10 ]
  - location: 34 (just consumed gas: 0)
    [ 79870 ]
  - location: 35 (just consumed gas: 0.010)
    [ 79870
      79870 ]
  - location: 38 (just consumed gas: 0.035)
    [ 0 ]
  - location: 40 (just consumed gas: 0.010)
    [ True ]
  - location: 41 (just consumed gas: 0)
    [  ]
  - location: 41 (just consumed gas: 0.015)
    [  ]
  - location: 47 (just consumed gas: 0.010)
    [ 10 ]
  - location: 50 (just consumed gas: 0.010)
    [ -7987
      10 ]
  - location: 53 (just consumed gas: 0.061)
    [ -79870 ]
  - location: 54 (just consumed gas: 0.010)
    [ -79870
      -79870 ]
  - location: 57 (just consumed gas: 0.035)
    [ 0 ]
  - location: 59 (just consumed gas: 0.010)
    [ True ]
  - location: 60 (just consumed gas: 0)
    [  ]
  - location: 60 (just consumed gas: 0.015)
    [  ]
  - location: 66 (just consumed gas: 0.010)
    [ 10 ]
  - location: 69 (just consumed gas: 0.010)
    [ -7987
      10 ]
  - location: 72 (just consumed gas: 0.061)
    [ -79870 ]
  - location: 73 (just consumed gas: 0.010)
    [ -79870
      -79870 ]
  - location: 76 (just consumed gas: 0.035)
    [ 0 ]
  - location: 78 (just consumed gas: 0.010)
    [ True ]
  - location: 79 (just consumed gas: 0)
    [  ]
  - location: 79 (just consumed gas: 0.015)
    [  ]
  - location: 85 (just consumed gas: 0.010)
    [ -10 ]
  - location: 88 (just consumed gas: 0.010)
    [ 7987
      -10 ]
  - location: 91 (just consumed gas: 0.061)
    [ -79870 ]
  - location: 92 (just consumed gas: 0.010)
    [ -79870
      -79870 ]
  - location: 95 (just consumed gas: 0.035)
    [ 0 ]
  - location: 97 (just consumed gas: 0.010)
    [ True ]
  - location: 98 (just consumed gas: 0)
    [  ]
  - location: 98 (just consumed gas: 0.015)
    [  ]
  - location: 104 (just consumed gas: 0.010)
    [ 10 ]
  - location: 107 (just consumed gas: 0.010)
    [ 7987
      10 ]
  - location: 110 (just consumed gas: 0.061)
    [ 79870 ]
  - location: 111 (just consumed gas: 0.010)
    [ 79870
      79870 ]
  - location: 114 (just consumed gas: 0.035)
    [ 0 ]
  - location: 116 (just consumed gas: 0.010)
    [ True ]
  - location: 117 (just consumed gas: 0)
    [  ]
  - location: 117 (just consumed gas: 0.015)
    [  ]
  - location: 123 (just consumed gas: 0.010)
    [ Unit ]
  - location: 124 (just consumed gas: 0.010)
    [ {}
      Unit ]
  - location: 126 (just consumed gas: 0.010)
    [ (Pair {} Unit) ]

