
./octez-client --protocol PtMumbaiaByZhjUPaSHEdbLZ6LUzw2YdzbGE2VX2oHSKAS4K2MD --mode mockup --no-base-dir-warnings run script ./tests_python/contracts_016/opcodes/ediv_mutez.tz on storage '(Left None)' and input '(Pair 5 (Right 10))' --level 1 --trace-stack
storage
  (Right (Some (Pair 0 5)))
emitted operations
  
big_map diff
  
trace
  - location: 19 (just consumed gas: 14.009)
    [ (Pair (Pair 5 (Right 10)) (Left None)) ]
  - location: 19 (just consumed gas: 0.010)
    [ (Pair 5 (Right 10)) ]
  - location: 20 (just consumed gas: 0.010)
    [ 5
      (Right 10) ]
  - location: 21 (just consumed gas: 0.010)
    [ (Right 10)
      5 ]
  - location: 22 (just consumed gas: 0)
    [ 10
      5 ]
  - location: 32 (just consumed gas: 0.010)
    [ 5
      10 ]
  - location: 33 (just consumed gas: 0.070)
    [ (Some (Pair 0 5)) ]
  - location: 34 (just consumed gas: 0.010)
    [ (Right (Some (Pair 0 5))) ]
  - location: 22 (just consumed gas: 0.015)
    [ (Right (Some (Pair 0 5))) ]
  - location: 39 (just consumed gas: 0.010)
    [ {}
      (Right (Some (Pair 0 5))) ]
  - location: 41 (just consumed gas: 0.010)
    [ (Pair {} (Right (Some (Pair 0 5)))) ]

