
./octez-client --protocol PtMumbaiaByZhjUPaSHEdbLZ6LUzw2YdzbGE2VX2oHSKAS4K2MD --mode mockup --no-base-dir-warnings run script ./tests_python/contracts_016/opcodes/set_car.tz on storage '(Pair "hello" 0)' and input '"world"' --level 1 --trace-stack
storage
  (Pair "world" 0)
emitted operations
  
big_map diff
  
trace
  - location: 9 (just consumed gas: 10.979)
    [ (Pair "world" "hello" 0) ]
  - location: 9 (just consumed gas: 0.010)
    [ (Pair "world" "hello" 0)
      (Pair "world" "hello" 0) ]
  - location: 10 (just consumed gas: 0.010)
    [ (Pair "hello" 0)
      (Pair "world" "hello" 0) ]
  - location: 11 (just consumed gas: 0)
    [ (Pair "world" "hello" 0) ]
  - location: 13 (just consumed gas: 0.010)
    [ "world" ]
  - location: 11 (just consumed gas: 0.025)
    [ (Pair "hello" 0)
      "world" ]
  - location: 15 (just consumed gas: 0.010)
    [ (Pair "hello" 0)
      (Pair "hello" 0)
      "world" ]
  - location: 16 (just consumed gas: 0.010)
    [ "hello"
      (Pair "hello" 0)
      "world" ]
  - location: 17 (just consumed gas: 0.010)
    [ (Pair "hello" 0)
      "world" ]
  - location: 18 (just consumed gas: 0.010)
    [ 0
      "world" ]
  - location: 19 (just consumed gas: 0.010)
    [ "world"
      0 ]
  - location: 20 (just consumed gas: 0.010)
    [ (Pair "world" 0) ]
  - location: 21 (just consumed gas: 0.010)
    [ {}
      (Pair "world" 0) ]
  - location: 23 (just consumed gas: 0.010)
    [ (Pair {} "world" 0) ]

