
./octez-client --wait none transfer 0 from bootstrap1 to '[CONTRACT_HASH]' --burn-cap 1 --entrypoint mint
Node is bootstrapped.
Estimated gas: 3053.548 units (will add 100 for safety)
Estimated storage: 221 bytes added (will add 20 for safety)
Operation successfully injected in the node.
Operation hash is '[OPERATION_HASH]'
NOT waiting for the operation to be included.
Use command
  octez-client wait for [OPERATION_HASH] to be included --confirmations 1 --branch [BLOCK_HASH]
and/or an external block explorer to make sure that it has been included.
This sequence of operations was run:
  Manager signed operations:
    From: [PUBLIC_KEY_HASH]
    Fee to the baker: ꜩ0.000577
    Expected counter: 3
    Gas limit: 3154
    Storage limit: 241 bytes
    Balance updates:
      [PUBLIC_KEY_HASH] ... -ꜩ0.000577
      payload fees(the block proposer) ....... +ꜩ0.000577
    Transaction:
      Amount: ꜩ0
      From: [PUBLIC_KEY_HASH]
      To: [CONTRACT_HASH]
      Entrypoint: mint
      This transaction was successfully applied
      Updated storage:
        { Pair 0x017a1d05251a570ed6e6e5af81f60883b857f8664500 (Pair "Ticket2" 1) ;
          Pair 0x017a1d05251a570ed6e6e5af81f60883b857f8664500 (Pair "Ticket" 1) }
      Storage size: 309 bytes
      Paid storage size diff: 221 bytes
      Consumed gas: 3053.548
      Balance updates:
        [PUBLIC_KEY_HASH] ... -ꜩ0.05525
        storage fees ........................... +ꜩ0.05525
      Ticket updates:
        Ticketer: [CONTRACT_HASH]
        Content type: string
        Content: "Ticket"
        Account updates:
          [CONTRACT_HASH] ... +1
        Ticketer: [CONTRACT_HASH]
        Content type: string
        Content: "Ticket2"
        Account updates:
          [CONTRACT_HASH] ... +1


./octez-client --wait none transfer 0 from bootstrap1 to '[CONTRACT_HASH]' --burn-cap 1 --entrypoint send --arg '"[SMART_ROLLUP_HASH]"'
Node is bootstrapped.
Estimated gas: 4870.301 units (will add 100 for safety)
Estimated storage: no bytes added
Operation successfully injected in the node.
Operation hash is '[OPERATION_HASH]'
NOT waiting for the operation to be included.
Use command
  octez-client wait for [OPERATION_HASH] to be included --confirmations 1 --branch [BLOCK_HASH]
and/or an external block explorer to make sure that it has been included.
This sequence of operations was run:
  Manager signed operations:
    From: [PUBLIC_KEY_HASH]
    Fee to the baker: ꜩ0.000797
    Expected counter: 4
    Gas limit: 4971
    Storage limit: 0 bytes
    Balance updates:
      [PUBLIC_KEY_HASH] ... -ꜩ0.000797
      payload fees(the block proposer) ....... +ꜩ0.000797
    Transaction:
      Amount: ꜩ0
      From: [PUBLIC_KEY_HASH]
      To: [CONTRACT_HASH]
      Entrypoint: send
      Parameter: "[SMART_ROLLUP_HASH]"
      This transaction was successfully applied
      Updated storage: {}
      Storage size: 220 bytes
      Consumed gas: 3861.282
      Ticket updates:
        Ticketer: [CONTRACT_HASH]
        Content type: string
        Content: "Ticket"
        Account updates:
          [CONTRACT_HASH] ... -1
        Ticketer: [CONTRACT_HASH]
        Content type: string
        Content: "Ticket2"
        Account updates:
          [CONTRACT_HASH] ... -1
      Internal operations:
        Internal Transaction:
          Amount: ꜩ0
          From: [CONTRACT_HASH]
          To: [SMART_ROLLUP_HASH]
          Parameter: { Pair 0x017a1d05251a570ed6e6e5af81f60883b857f8664500 (Pair "Ticket2" 1) ;
                       Pair 0x017a1d05251a570ed6e6e5af81f60883b857f8664500 (Pair "Ticket" 1) }
          This transaction was successfully applied
          Consumed gas: 1009.053
          Ticket updates:
            Ticketer: [CONTRACT_HASH]
            Content type: string
            Content: "Ticket"
            Account updates:
              [SMART_ROLLUP_HASH] ... +1
            Ticketer: [CONTRACT_HASH]
            Content type: string
            Content: "Ticket2"
            Account updates:
              [SMART_ROLLUP_HASH] ... +1

