
./octez-client --mode mockup --wait none originate contract self_address_sender.tz transferring 0 from bootstrap1 running tests_python/contracts_016/mini_scenarios/self_address_sender.tz --init Unit --burn-cap 1
Node is bootstrapped.
Estimated gas: 1422.112 units (will add 100 for safety)
Estimated storage: 339 bytes added (will add 20 for safety)
Operation successfully injected in the node.
Operation hash is '[OPERATION_HASH]'
NOT waiting for the operation to be included.
Use command
  octez-client wait for [OPERATION_HASH] to be included --confirmations 1 --branch [BLOCK_HASH]
and/or an external block explorer to make sure that it has been included.
This sequence of operations was run:
  Manager signed operations:
    From: [PUBLIC_KEY_HASH]
    Fee to the baker: ꜩ0.000462
    Expected counter: 1
    Gas limit: 1523
    Storage limit: 359 bytes
    Balance updates:
      [PUBLIC_KEY_HASH] ... -ꜩ0.000462
      payload fees(the block proposer) ....... +ꜩ0.000462
    Origination:
      From: [PUBLIC_KEY_HASH]
      Credit: ꜩ0
      Script:
        { parameter (contract (lambda unit address)) ;
          storage unit ;
          code { CAR ;
                 BALANCE ;
                 LAMBDA unit address { DROP ; SELF_ADDRESS } ;
                 TRANSFER_TOKENS ;
                 DIP { UNIT ; NIL operation } ;
                 CONS ;
                 PAIR } }
        Initial storage: Unit
        No delegate for this contract
        This origination was successfully applied
        Originated contracts:
          [CONTRACT_HASH]
        Storage size: 82 bytes
        Paid storage size diff: 82 bytes
        Consumed gas: 1422.112
        Balance updates:
          [PUBLIC_KEY_HASH] ... -ꜩ0.0205
          storage fees ........................... +ꜩ0.0205
          [PUBLIC_KEY_HASH] ... -ꜩ0.06425
          storage fees ........................... +ꜩ0.06425

New contract [CONTRACT_HASH] originated.
Contract memorized as self_address_sender.tz.

./octez-client --mode mockup --wait none originate contract self_address_receiver.tz transferring 0 from bootstrap1 running tests_python/contracts_016/mini_scenarios/self_address_receiver.tz --init Unit --burn-cap 1
Node is bootstrapped.
Estimated gas: 1422.521 units (will add 100 for safety)
Estimated storage: 340 bytes added (will add 20 for safety)
Operation successfully injected in the node.
Operation hash is '[OPERATION_HASH]'
NOT waiting for the operation to be included.
Use command
  octez-client wait for [OPERATION_HASH] to be included --confirmations 1 --branch [BLOCK_HASH]
and/or an external block explorer to make sure that it has been included.
This sequence of operations was run:
  Manager signed operations:
    From: [PUBLIC_KEY_HASH]
    Fee to the baker: ꜩ0.000463
    Expected counter: 2
    Gas limit: 1523
    Storage limit: 360 bytes
    Balance updates:
      [PUBLIC_KEY_HASH] ... -ꜩ0.000463
      payload fees(the block proposer) ....... +ꜩ0.000463
    Origination:
      From: [PUBLIC_KEY_HASH]
      Credit: ꜩ0
      Script:
        { parameter (lambda unit address) ;
          storage unit ;
          code { UNPAIR ;
                 UNIT ;
                 EXEC ;
                 SELF_ADDRESS ;
                 ASSERT_CMPEQ ;
                 NIL operation ;
                 PAIR } }
        Initial storage: Unit
        No delegate for this contract
        This origination was successfully applied
        Originated contracts:
          [CONTRACT_HASH]
        Storage size: 83 bytes
        Paid storage size diff: 83 bytes
        Consumed gas: 1422.521
        Balance updates:
          [PUBLIC_KEY_HASH] ... -ꜩ0.02075
          storage fees ........................... +ꜩ0.02075
          [PUBLIC_KEY_HASH] ... -ꜩ0.06425
          storage fees ........................... +ꜩ0.06425

New contract [CONTRACT_HASH] originated.
Contract memorized as self_address_receiver.tz.

./octez-client --mode mockup --wait none transfer 0 from bootstrap2 to '[CONTRACT_HASH]' --burn-cap 2 --arg '"[CONTRACT_HASH]"'
Node is bootstrapped.
Estimated gas: 4691.625 units (will add 100 for safety)
Estimated storage: no bytes added
Operation successfully injected in the node.
Operation hash is '[OPERATION_HASH]'
NOT waiting for the operation to be included.
Use command
  octez-client wait for [OPERATION_HASH] to be included --confirmations 1 --branch [BLOCK_HASH]
and/or an external block explorer to make sure that it has been included.
This sequence of operations was run:
  Manager signed operations:
    From: [PUBLIC_KEY_HASH]
    Fee to the baker: ꜩ0.000774
    Expected counter: 1
    Gas limit: 4792
    Storage limit: 0 bytes
    Balance updates:
      [PUBLIC_KEY_HASH] ... -ꜩ0.000774
      payload fees(the block proposer) ....... +ꜩ0.000774
    Transaction:
      Amount: ꜩ0
      From: [PUBLIC_KEY_HASH]
      To: [CONTRACT_HASH]
      Parameter: "[CONTRACT_HASH]"
      This transaction was successfully applied
      Updated storage: Unit
      Storage size: 82 bytes
      Consumed gas: 2575.785
      Internal operations:
        Internal Transaction:
          Amount: ꜩ0
          From: [CONTRACT_HASH]
          To: [CONTRACT_HASH]
          Parameter: { DROP ; SELF_ADDRESS }
          This transaction was successfully applied
          Updated storage: Unit
          Storage size: 83 bytes
          Consumed gas: 2117.087

