
./octez-client --wait none originate smart rollup from bootstrap1 of kind arith of type string with kernel '10 10 10 + +' --burn-cap 9999999
Node is bootstrapped.
Estimated gas: 2748.037 units (will add 100 for safety)
Estimated storage: 6552 bytes added (will add 20 for safety)
Operation successfully injected in the node.
Operation hash is '[OPERATION_HASH]'
NOT waiting for the operation to be included.
Use command
  octez-client wait for [OPERATION_HASH] to be included --confirmations 1 --branch [BLOCK_HASH]
and/or an external block explorer to make sure that it has been included.
This sequence of operations was run:
  Manager signed operations:
    From: [PUBLIC_KEY_HASH]
    Fee to the baker: ꜩ0.000645
    Expected counter: 1
    Gas limit: 2849
    Storage limit: 6572 bytes
    Balance updates:
      [PUBLIC_KEY_HASH] ... -ꜩ0.000645
      payload fees(the block proposer) ....... +ꜩ0.000645
    Smart rollup origination:
      Kind: arith
      Parameter type: string
      Kernel Blake2B hash: '8eb6ccf70902fcd3fa2040cf27dda202a71d85625516f22a0c9c67fc86057a7b'
      This smart rollup origination was successfully applied
      Consumed gas: 2748.037
      Storage size: 6552 bytes
      Address: [SMART_ROLLUP_HASH]
      Genesis commitment hash: [SC_ROLLUP_COMMITMENT_HASH]
      Balance updates:
        [PUBLIC_KEY_HASH] ... -ꜩ1.638
        storage fees ........................... +ꜩ1.638


./octez-client --wait none originate smart rollup from bootstrap2 of kind arith of type string with kernel 31 --burn-cap 9999999
Node is bootstrapped.
Estimated gas: 2748.037 units (will add 100 for safety)
Estimated storage: 6552 bytes added (will add 20 for safety)
Operation successfully injected in the node.
Operation hash is '[OPERATION_HASH]'
NOT waiting for the operation to be included.
Use command
  octez-client wait for [OPERATION_HASH] to be included --confirmations 1 --branch [BLOCK_HASH]
and/or an external block explorer to make sure that it has been included.
This sequence of operations was run:
  Manager signed operations:
    From: [PUBLIC_KEY_HASH]
    Fee to the baker: ꜩ0.000635
    Expected counter: 1
    Gas limit: 2849
    Storage limit: 6572 bytes
    Balance updates:
      [PUBLIC_KEY_HASH] ... -ꜩ0.000635
      payload fees(the block proposer) ....... +ꜩ0.000635
    Smart rollup origination:
      Kind: arith
      Parameter type: string
      Kernel Blake2B hash: 'b682df8c87f218dfa8151f2eaafe20e6f8d87b243f8fe63de6d49485a8bf6eea'
      This smart rollup origination was successfully applied
      Consumed gas: 2748.037
      Storage size: 6552 bytes
      Address: [SMART_ROLLUP_HASH]
      Genesis commitment hash: [SC_ROLLUP_COMMITMENT_HASH]
      Balance updates:
        [PUBLIC_KEY_HASH] ... -ꜩ1.638
        storage fees ........................... +ꜩ1.638


./octez-client rpc get '/chains/main/blocks/head/context/smart_rollups/smart_rollup/[SMART_ROLLUP_HASH]/genesis_info'
{ "level": 2,
  "commitment_hash": "[SC_ROLLUP_COMMITMENT_HASH]" }

./octez-client rpc get '/chains/main/blocks/head/context/smart_rollups/smart_rollup/[SMART_ROLLUP_HASH]/commitment/[SC_ROLLUP_COMMITMENT_HASH]'
{ "compressed_state":
    "[SC_ROLLUP_PVM_STATE_HASH]",
  "inbox_level": 2,
  "predecessor": "[SC_ROLLUP_COMMITMENT_HASH]",
  "number_of_ticks": "0" }

./octez-client rpc get '/chains/main/blocks/head/context/smart_rollups/smart_rollup/[SMART_ROLLUP_HASH]/genesis_info'
{ "level": 3,
  "commitment_hash": "[SC_ROLLUP_COMMITMENT_HASH]" }

./octez-client rpc get '/chains/main/blocks/head/context/smart_rollups/smart_rollup/[SMART_ROLLUP_HASH]/commitment/[SC_ROLLUP_COMMITMENT_HASH]'
{ "compressed_state":
    "[SC_ROLLUP_PVM_STATE_HASH]",
  "inbox_level": 3,
  "predecessor": "[SC_ROLLUP_COMMITMENT_HASH]",
  "number_of_ticks": "0" }
